INDEX VERSION 1.129+D:\WORKSPACE bulker\.metadata\.plugins\org.eclipse.jdt.core
2108846470.index
2916387761.index
1923058672.index
619128152.index
2800835711.index
237767203.index
1066530928.index
2405867545.index
1230548862.index
3977237333.index
350279990.index
941124024.index
171659623.index
730295416.index
214015933.index
4241923578.index
278036778.index
1192886228.index
3881895219.index
1386284257.index
2539203015.index
895584333.index
288565876.index
3801363900.index
3918925636.index
3011632965.index
433094072.index
971320854.index
1140639501.index
3709429384.index
3430074467.index
2570284310.index
2249798008.index
1629649323.index
1875109118.index
3668091918.index
2504099467.index
2532115223.index
4283199625.index
1105826369.index
2489380680.index
744077243.index
159312271.index
70447709.index
1874310707.index
2723095166.index
3174366067.index
2412308152.index
638733521.index
1250966177.index
2883740360.index
912921935.index
797331212.index
1983589985.index
2076455917.index
2109297671.index
917142710.index
1576441000.index
3234760710.index
332719247.index
3458703449.index
1705628503.index
4100829950.index
3043008368.index
3055162968.index
1934879140.index
1158053461.index
95987695.index
3469814083.index
971445445.index
3366321957.index
