<?xml version="1.0" encoding="UTF-8"?>
<session version="1.0">
<refactoring comment="Encapsulate field &apos;com.shadowinfosystem.cashwrap.entities.Invoice.custRemark&apos; in &apos;com.shadowinfosystem.cashwrap.entities.Invoice&apos;&#x0D;&#x0A;- Original project: &apos;JSFExample2&apos;&#x0D;&#x0A;- Original element: &apos;com.shadowinfosystem.cashwrap.entities.Invoice.custRemark&apos;&#x0D;&#x0A;- Getter method name: &apos;getCustRemark&apos;&#x0D;&#x0A;- Setter method name: &apos;setCustRemark&apos;&#x0D;&#x0A;- Field visibility: &apos;public&apos;&#x0D;&#x0A;- Use getter and setter methods in declaring type" comments="false" declaring="true" description="Encapsulate field &apos;custRemark&apos;" flags="589830" getter="getCustRemark" id="org.eclipse.jdt.ui.self.encapsulate" input="/src&lt;com.shadowinfosystem.cashwrap.entities{Invoice.java[Invoice^custRemark" insertion="102" setter="setCustRemark" stamp="1507712172816" version="1.0" visibility="1"/>
</session>