<?xml version="1.0" encoding="UTF-8"?>
<session version="1.0">
<refactoring comment="Copy element &apos;Uom.java&apos; to &apos;com.shadowinfosystem.cashwrap.entities.Uom.java&apos;&#x0D;&#x0A;- Original project: &apos;Bosh&apos;&#x0D;&#x0A;- Destination element: &apos;com.shadowinfosystem.cashwrap.entities.Uom.java&apos;&#x0D;&#x0A;- Original element: &apos;com.shadowinfosystem.cashwrap.entities.Uom.java&apos;" description="Copy compilation unit" destination="/src&lt;com.shadowinfosystem.cashwrap.entities{Uom.java" element1="/src&lt;com.shadowinfosystem.cashwrap.entities{Uom.java" files="0" flags="589830" folders="0" id="org.eclipse.jdt.ui.copy" policy="org.eclipse.jdt.ui.copyResources" stamp="1518771026336" units="1" version="1.0"/>
</session>