<?xml version="1.0" encoding="UTF-8"?>
<session version="1.0">
<refactoring comment="Encapsulate field &apos;com.shadowinfosystem.cashwrap.entities.Invoice.custTin&apos; in &apos;com.shadowinfosystem.cashwrap.entities.Invoice&apos;&#x0D;&#x0A;- Original project: &apos;JSFExample2&apos;&#x0D;&#x0A;- Original element: &apos;com.shadowinfosystem.cashwrap.entities.Invoice.custTin&apos;&#x0D;&#x0A;- Getter method name: &apos;getCustTin&apos;&#x0D;&#x0A;- Setter method name: &apos;setCustTin&apos;&#x0D;&#x0A;- Field visibility: &apos;public&apos;&#x0D;&#x0A;- Use getter and setter methods in declaring type" comments="false" declaring="true" description="Encapsulate field &apos;custTin&apos;" flags="589830" getter="getCustTin" id="org.eclipse.jdt.ui.self.encapsulate" input="/src&lt;com.shadowinfosystem.cashwrap.entities{Invoice.java[Invoice^custTin" insertion="100" setter="setCustTin" stamp="1503481689319" version="1.0" visibility="1"/>
</session>