127.0.0.1 - - [26/Apr/2018:10:47:27 +0530] "GET / HTTP/1.1" 404 1070
0:0:0:0:0:0:0:1 - - [26/Apr/2018:10:47:30 +0530] "GET /CashWrap/ HTTP/1.1" 200 6258
0:0:0:0:0:0:0:1 - - [26/Apr/2018:10:47:30 +0530] "GET /CashWrap/javax.faces.resource/layout/layout.css.wrap;jsessionid=F949E21D1F960B72A7A6B064F606E8C6?ln=primefaces&v=4.0 HTTP/1.1" 200 542
0:0:0:0:0:0:0:1 - - [26/Apr/2018:10:47:30 +0530] "GET /CashWrap/javax.faces.resource/jquery/jquery.js.wrap;jsessionid=F949E21D1F960B72A7A6B064F606E8C6?ln=primefaces&v=4.0 HTTP/1.1" 200 105493
0:0:0:0:0:0:0:1 - - [26/Apr/2018:10:47:30 +0530] "GET /CashWrap/javax.faces.resource/primefaces.js.wrap;jsessionid=F949E21D1F960B72A7A6B064F606E8C6?ln=primefaces&v=4.0 HTTP/1.1" 200 277201
0:0:0:0:0:0:0:1 - - [26/Apr/2018:10:47:30 +0530] "GET /CashWrap/javax.faces.resource/jquery/jquery-plugins.js.wrap;jsessionid=F949E21D1F960B72A7A6B064F606E8C6?ln=primefaces&v=4.0 HTTP/1.1" 200 220747
0:0:0:0:0:0:0:1 - - [26/Apr/2018:10:47:30 +0530] "GET /CashWrap/javax.faces.resource/primefaces.css.wrap;jsessionid=F949E21D1F960B72A7A6B064F606E8C6?ln=primefaces&v=4.0 HTTP/1.1" 200 53376
0:0:0:0:0:0:0:1 - - [26/Apr/2018:10:47:30 +0530] "GET /CashWrap/javax.faces.resource/layout/layout.js.wrap;jsessionid=F949E21D1F960B72A7A6B064F606E8C6?ln=primefaces&v=4.0 HTTP/1.1" 200 87653
0:0:0:0:0:0:0:1 - - [26/Apr/2018:10:47:30 +0530] "GET /CashWrap/resources/css/default.css HTTP/1.1" 200 2927
0:0:0:0:0:0:0:1 - - [26/Apr/2018:10:47:30 +0530] "GET /CashWrap/javax.faces.resource/theme.css.wrap?ln=primefaces-aristo HTTP/1.1" 200 28091
0:0:0:0:0:0:0:1 - - [26/Apr/2018:10:47:30 +0530] "GET /CashWrap/resources/css/cssLayout.css HTTP/1.1" 200 6121
0:0:0:0:0:0:0:1 - - [26/Apr/2018:10:47:30 +0530] "GET /CashWrap/resources/css/main.css HTTP/1.1" 200 2741
0:0:0:0:0:0:0:1 - - [26/Apr/2018:10:47:30 +0530] "GET /CashWrap/javax.faces.resource/images/cash-wrap-logo.png.wrap;jsessionid=F949E21D1F960B72A7A6B064F606E8C6 HTTP/1.1" 200 8810
0:0:0:0:0:0:0:1 - - [26/Apr/2018:10:47:30 +0530] "GET /CashWrap/javax.faces.resource/images/cash-wrap.png.wrap;jsessionid=F949E21D1F960B72A7A6B064F606E8C6 HTTP/1.1" 200 79368
0:0:0:0:0:0:0:1 - - [26/Apr/2018:10:47:30 +0530] "GET /CashWrap/javax.faces.resource/images/patanjali-store.png.wrap;jsessionid=F949E21D1F960B72A7A6B064F606E8C6 HTTP/1.1" 200 194537
0:0:0:0:0:0:0:1 - - [26/Apr/2018:10:47:30 +0530] "GET /CashWrap/resources/images/cash-wrap-logo.png HTTP/1.1" 200 8790
0:0:0:0:0:0:0:1 - - [26/Apr/2018:10:47:30 +0530] "GET /GenSoft/resources/images/background.png HTTP/1.1" 404 1109
0:0:0:0:0:0:0:1 - - [26/Apr/2018:10:47:30 +0530] "GET /CashWrap/resources/images/bg.png HTTP/1.1" 200 208321
0:0:0:0:0:0:0:1 - - [26/Apr/2018:10:47:30 +0530] "GET /CashWrap/resources/images/bg1.jpg HTTP/1.1" 200 104997
0:0:0:0:0:0:0:1 - - [26/Apr/2018:10:47:30 +0530] "GET /CashWrap/resources/images/login-icon.png HTTP/1.1" 200 1266
0:0:0:0:0:0:0:1 - - [26/Apr/2018:10:47:31 +0530] "GET /CashWrap/resources/images/favicon-icon.png HTTP/1.1" 404 5819
0:0:0:0:0:0:0:1 - - [26/Apr/2018:10:47:49 +0530] "POST /CashWrap/login.wrap;jsessionid=F949E21D1F960B72A7A6B064F606E8C6 HTTP/1.1" 200 6018
0:0:0:0:0:0:0:1 - - [26/Apr/2018:10:47:49 +0530] "GET /CashWrap/javax.faces.resource/layout/layout.css.wrap?ln=primefaces&v=4.0 HTTP/1.1" 200 542
0:0:0:0:0:0:0:1 - - [26/Apr/2018:10:47:49 +0530] "GET /CashWrap/javax.faces.resource/jquery/jquery.js.wrap?ln=primefaces&v=4.0 HTTP/1.1" 200 105493
0:0:0:0:0:0:0:1 - - [26/Apr/2018:10:47:49 +0530] "GET /CashWrap/javax.faces.resource/jquery/jquery-plugins.js.wrap?ln=primefaces&v=4.0 HTTP/1.1" 200 220747
0:0:0:0:0:0:0:1 - - [26/Apr/2018:10:47:49 +0530] "GET /CashWrap/javax.faces.resource/primefaces.css.wrap?ln=primefaces&v=4.0 HTTP/1.1" 200 53376
0:0:0:0:0:0:0:1 - - [26/Apr/2018:10:47:49 +0530] "GET /CashWrap/javax.faces.resource/primefaces.js.wrap?ln=primefaces&v=4.0 HTTP/1.1" 200 277201
0:0:0:0:0:0:0:1 - - [26/Apr/2018:10:47:49 +0530] "GET /CashWrap/javax.faces.resource/layout/layout.js.wrap?ln=primefaces&v=4.0 HTTP/1.1" 200 87653
0:0:0:0:0:0:0:1 - - [26/Apr/2018:10:47:49 +0530] "GET /CashWrap/javax.faces.resource/images/cash-wrap-logo.png.wrap HTTP/1.1" 200 8810
0:0:0:0:0:0:0:1 - - [26/Apr/2018:10:47:49 +0530] "GET /CashWrap/javax.faces.resource/images/cash-wrap.png.wrap HTTP/1.1" 200 79368
0:0:0:0:0:0:0:1 - - [26/Apr/2018:10:47:49 +0530] "GET /CashWrap/javax.faces.resource/images/patanjali-store.png.wrap HTTP/1.1" 200 194537
0:0:0:0:0:0:0:1 - - [26/Apr/2018:10:47:49 +0530] "GET /GenSoft/resources/images/background.png HTTP/1.1" 404 1109
0:0:0:0:0:0:0:1 - - [26/Apr/2018:10:47:49 +0530] "GET /CashWrap/javax.faces.resource/messages/messages.png.wrap?ln=primefaces&v=4.0 HTTP/1.1" 200 27245
0:0:0:0:0:0:0:1 - - [26/Apr/2018:10:47:52 +0530] "POST /CashWrap/login.wrap HTTP/1.1" 200 6019
0:0:0:0:0:0:0:1 - - [26/Apr/2018:10:47:53 +0530] "GET /GenSoft/resources/images/background.png HTTP/1.1" 404 1109
0:0:0:0:0:0:0:1 - - [26/Apr/2018:10:47:57 +0530] "POST /CashWrap/login.wrap HTTP/1.1" 200 6019
0:0:0:0:0:0:0:1 - - [26/Apr/2018:10:47:57 +0530] "GET /GenSoft/resources/images/background.png HTTP/1.1" 404 1109
0:0:0:0:0:0:0:1 - - [26/Apr/2018:10:48:14 +0530] "POST /CashWrap/login.wrap HTTP/1.1" 200 6018
0:0:0:0:0:0:0:1 - - [26/Apr/2018:10:48:14 +0530] "GET /GenSoft/resources/images/background.png HTTP/1.1" 404 1109
0:0:0:0:0:0:0:1 - - [26/Apr/2018:10:48:23 +0530] "POST /CashWrap/login.wrap HTTP/1.1" 200 6018
0:0:0:0:0:0:0:1 - - [26/Apr/2018:10:48:23 +0530] "GET /GenSoft/resources/images/background.png HTTP/1.1" 404 1109
0:0:0:0:0:0:0:1 - - [26/Apr/2018:10:59:25 +0530] "POST /CashWrap/login.wrap HTTP/1.1" 200 6018
0:0:0:0:0:0:0:1 - - [26/Apr/2018:10:59:25 +0530] "GET /GenSoft/resources/images/background.png HTTP/1.1" 404 1109
0:0:0:0:0:0:0:1 - - [26/Apr/2018:10:59:30 +0530] "POST /CashWrap/login.wrap HTTP/1.1" 200 6019
0:0:0:0:0:0:0:1 - - [26/Apr/2018:10:59:31 +0530] "GET /GenSoft/resources/images/background.png HTTP/1.1" 404 1109
0:0:0:0:0:0:0:1 - - [26/Apr/2018:10:59:36 +0530] "POST /CashWrap/login.wrap HTTP/1.1" 200 6018
0:0:0:0:0:0:0:1 - - [26/Apr/2018:10:59:36 +0530] "GET /GenSoft/resources/images/background.png HTTP/1.1" 404 1109
0:0:0:0:0:0:0:1 - - [26/Apr/2018:11:16:08 +0530] "GET /CashWrap/ HTTP/1.1" 200 5831
0:0:0:0:0:0:0:1 - - [26/Apr/2018:11:16:08 +0530] "GET /GenSoft/resources/images/background.png HTTP/1.1" 404 1109
0:0:0:0:0:0:0:1 - - [26/Apr/2018:11:16:14 +0530] "POST /CashWrap/login.wrap HTTP/1.1" 200 6018
0:0:0:0:0:0:0:1 - - [26/Apr/2018:11:16:14 +0530] "GET /GenSoft/resources/images/background.png HTTP/1.1" 404 1109
0:0:0:0:0:0:0:1 - - [26/Apr/2018:11:16:19 +0530] "POST /CashWrap/login.wrap HTTP/1.1" 200 6019
0:0:0:0:0:0:0:1 - - [26/Apr/2018:11:16:20 +0530] "GET /GenSoft/resources/images/background.png HTTP/1.1" 404 1109
0:0:0:0:0:0:0:1 - - [26/Apr/2018:11:16:26 +0530] "POST /CashWrap/login.wrap HTTP/1.1" 200 6018
0:0:0:0:0:0:0:1 - - [26/Apr/2018:11:16:26 +0530] "GET /GenSoft/resources/images/background.png HTTP/1.1" 404 1109
