127.0.0.1 - - [20/Mar/2018:09:51:49 +0530] "GET / HTTP/1.1" 404 1070
0:0:0:0:0:0:0:1 - - [20/Mar/2018:09:51:54 +0530] "GET /CashWrap/ HTTP/1.1" 200 6258
0:0:0:0:0:0:0:1 - - [20/Mar/2018:09:51:54 +0530] "GET /CashWrap/resources/css/default.css HTTP/1.1" 200 2927
0:0:0:0:0:0:0:1 - - [20/Mar/2018:09:51:54 +0530] "GET /CashWrap/resources/css/cssLayout.css HTTP/1.1" 200 6121
0:0:0:0:0:0:0:1 - - [20/Mar/2018:09:51:54 +0530] "GET /CashWrap/resources/css/main.css HTTP/1.1" 200 2741
0:0:0:0:0:0:0:1 - - [20/Mar/2018:09:51:55 +0530] "GET /CashWrap/javax.faces.resource/layout/layout.css.wrap;jsessionid=F375DAE31FEE010305FB0B2FAC314F52?ln=primefaces&v=4.0 HTTP/1.1" 200 542
0:0:0:0:0:0:0:1 - - [20/Mar/2018:09:51:55 +0530] "GET /CashWrap/javax.faces.resource/jquery/jquery.js.wrap;jsessionid=F375DAE31FEE010305FB0B2FAC314F52?ln=primefaces&v=4.0 HTTP/1.1" 200 105493
0:0:0:0:0:0:0:1 - - [20/Mar/2018:09:51:55 +0530] "GET /CashWrap/javax.faces.resource/jquery/jquery-plugins.js.wrap;jsessionid=F375DAE31FEE010305FB0B2FAC314F52?ln=primefaces&v=4.0 HTTP/1.1" 200 220747
0:0:0:0:0:0:0:1 - - [20/Mar/2018:09:51:55 +0530] "GET /CashWrap/javax.faces.resource/primefaces.js.wrap;jsessionid=F375DAE31FEE010305FB0B2FAC314F52?ln=primefaces&v=4.0 HTTP/1.1" 200 277201
0:0:0:0:0:0:0:1 - - [20/Mar/2018:09:51:55 +0530] "GET /CashWrap/javax.faces.resource/primefaces.css.wrap;jsessionid=F375DAE31FEE010305FB0B2FAC314F52?ln=primefaces&v=4.0 HTTP/1.1" 200 53376
0:0:0:0:0:0:0:1 - - [20/Mar/2018:09:51:55 +0530] "GET /CashWrap/javax.faces.resource/layout/layout.js.wrap;jsessionid=F375DAE31FEE010305FB0B2FAC314F52?ln=primefaces&v=4.0 HTTP/1.1" 200 87653
0:0:0:0:0:0:0:1 - - [20/Mar/2018:09:51:55 +0530] "GET /CashWrap/javax.faces.resource/theme.css.wrap?ln=primefaces-aristo HTTP/1.1" 200 28091
0:0:0:0:0:0:0:1 - - [20/Mar/2018:09:51:55 +0530] "GET /CashWrap/javax.faces.resource/images/cash-wrap-logo.png.wrap;jsessionid=F375DAE31FEE010305FB0B2FAC314F52 HTTP/1.1" 200 8810
0:0:0:0:0:0:0:1 - - [20/Mar/2018:09:51:55 +0530] "GET /GenSoft/resources/images/background.png HTTP/1.1" 404 1109
0:0:0:0:0:0:0:1 - - [20/Mar/2018:09:51:55 +0530] "GET /CashWrap/resources/images/cash-wrap-logo.png HTTP/1.1" 200 8790
0:0:0:0:0:0:0:1 - - [20/Mar/2018:09:51:55 +0530] "GET /CashWrap/resources/images/bg.png HTTP/1.1" 200 208321
0:0:0:0:0:0:0:1 - - [20/Mar/2018:09:51:55 +0530] "GET /CashWrap/resources/images/bg1.jpg HTTP/1.1" 200 104997
0:0:0:0:0:0:0:1 - - [20/Mar/2018:09:51:55 +0530] "GET /CashWrap/javax.faces.resource/images/cash-wrap.png.wrap;jsessionid=F375DAE31FEE010305FB0B2FAC314F52 HTTP/1.1" 200 79368
0:0:0:0:0:0:0:1 - - [20/Mar/2018:09:51:55 +0530] "GET /CashWrap/javax.faces.resource/images/patanjali-store.png.wrap;jsessionid=F375DAE31FEE010305FB0B2FAC314F52 HTTP/1.1" 200 194537
0:0:0:0:0:0:0:1 - - [20/Mar/2018:09:51:55 +0530] "GET /CashWrap/resources/images/login-icon.png HTTP/1.1" 200 1266
0:0:0:0:0:0:0:1 - - [20/Mar/2018:09:52:06 +0530] "POST /CashWrap/login.wrap;jsessionid=F375DAE31FEE010305FB0B2FAC314F52 HTTP/1.1" 302 -
0:0:0:0:0:0:0:1 - - [20/Mar/2018:09:52:11 +0530] "GET /CashWrap/retail.wrap HTTP/1.1" 200 31846
0:0:0:0:0:0:0:1 - - [20/Mar/2018:09:52:11 +0530] "GET /CashWrap/javax.faces.resource/layout/layout.css.wrap?ln=primefaces&v=4.0 HTTP/1.1" 200 542
0:0:0:0:0:0:0:1 - - [20/Mar/2018:09:52:11 +0530] "GET /CashWrap/javax.faces.resource/jquery/jquery.js.wrap?ln=primefaces&v=4.0 HTTP/1.1" 200 105493
0:0:0:0:0:0:0:1 - - [20/Mar/2018:09:52:11 +0530] "GET /CashWrap/javax.faces.resource/primefaces.css.wrap?ln=primefaces&v=4.0 HTTP/1.1" 200 53376
0:0:0:0:0:0:0:1 - - [20/Mar/2018:09:52:11 +0530] "GET /CashWrap/javax.faces.resource/layout/layout.js.wrap?ln=primefaces&v=4.0 HTTP/1.1" 200 87653
0:0:0:0:0:0:0:1 - - [20/Mar/2018:09:52:11 +0530] "GET /CashWrap/javax.faces.resource/primefaces.js.wrap?ln=primefaces&v=4.0 HTTP/1.1" 200 277201
0:0:0:0:0:0:0:1 - - [20/Mar/2018:09:52:11 +0530] "GET /CashWrap/javax.faces.resource/jquery/jquery-plugins.js.wrap?ln=primefaces&v=4.0 HTTP/1.1" 200 220747
0:0:0:0:0:0:0:1 - - [20/Mar/2018:09:52:11 +0530] "GET /CashWrap/resources/js/jquery-2.2.1.min.js HTTP/1.1" 200 85630
0:0:0:0:0:0:0:1 - - [20/Mar/2018:09:52:11 +0530] "GET /CashWrap/javax.faces.resource/spacer/dot_clear.gif.wrap?ln=primefaces&v=4.0 HTTP/1.1" 200 42
0:0:0:0:0:0:0:1 - - [20/Mar/2018:09:52:11 +0530] "GET /CashWrap/javax.faces.resource/images/loading.gif.wrap HTTP/1.1" 200 2089
0:0:0:0:0:0:0:1 - - [20/Mar/2018:09:52:11 +0530] "GET /CashWrap/javax.faces.resource/images/RingLoading.gif.wrap HTTP/1.1" 200 2273
0:0:0:0:0:0:0:1 - - [20/Mar/2018:09:52:11 +0530] "GET /CashWrap/javax.faces.resource/images/user.png.wrap HTTP/1.1" 200 3860
0:0:0:0:0:0:0:1 - - [20/Mar/2018:09:52:12 +0530] "GET /CashWrap/javax.faces.resource/images/master.png.wrap HTTP/1.1" 200 1582
0:0:0:0:0:0:0:1 - - [20/Mar/2018:09:52:12 +0530] "GET /CashWrap/javax.faces.resource/images/transaction.png.wrap HTTP/1.1" 200 1552
0:0:0:0:0:0:0:1 - - [20/Mar/2018:09:52:12 +0530] "GET /CashWrap/javax.faces.resource/images/utilities.png.wrap HTTP/1.1" 200 1688
0:0:0:0:0:0:0:1 - - [20/Mar/2018:09:52:12 +0530] "GET /CashWrap/javax.faces.resource/images/user-management.png.wrap HTTP/1.1" 200 1553
0:0:0:0:0:0:0:1 - - [20/Mar/2018:09:52:12 +0530] "GET /CashWrap/javax.faces.resource/images/report.png.wrap HTTP/1.1" 200 1585
0:0:0:0:0:0:0:1 - - [20/Mar/2018:09:52:12 +0530] "GET /CashWrap/javax.faces.resource/images/account-tranction.png.wrap HTTP/1.1" 200 1511
0:0:0:0:0:0:0:1 - - [20/Mar/2018:09:52:12 +0530] "GET /CashWrap/javax.faces.resource/images/icon1.png.wrap HTTP/1.1" 200 2183
0:0:0:0:0:0:0:1 - - [20/Mar/2018:09:52:12 +0530] "GET /CashWrap/javax.faces.resource/images/nav-icon.png.wrap HTTP/1.1" 200 2964
0:0:0:0:0:0:0:1 - - [20/Mar/2018:09:52:12 +0530] "GET /CashWrap/javax.faces.resource/images/icon2.png.wrap HTTP/1.1" 200 4457
0:0:0:0:0:0:0:1 - - [20/Mar/2018:09:52:12 +0530] "GET /CashWrap/javax.faces.resource/images/icon3.png.wrap HTTP/1.1" 200 2071
0:0:0:0:0:0:0:1 - - [20/Mar/2018:09:52:12 +0530] "GET /CashWrap/javax.faces.resource/images/ui-icons_898989_256x240.png.wrap?ln=primefaces-aristo HTTP/1.1" 200 5355
0:0:0:0:0:0:0:1 - - [20/Mar/2018:09:52:12 +0530] "GET /CashWrap/javax.faces.resource/images/ui-icons_616161_256x240.png.wrap?ln=primefaces-aristo HTTP/1.1" 200 4369
0:0:0:0:0:0:0:1 - - [20/Mar/2018:09:52:12 +0530] "GET /CashWrap/javax.faces.resource/images/icon13.png.wrap HTTP/1.1" 200 2322
0:0:0:0:0:0:0:1 - - [20/Mar/2018:09:52:12 +0530] "GET /CashWrap/javax.faces.resource/images/icon14.png.wrap HTTP/1.1" 200 2395
0:0:0:0:0:0:0:1 - - [20/Mar/2018:09:52:12 +0530] "GET /CashWrap/javax.faces.resource/images/icon4.png.wrap HTTP/1.1" 200 3302
0:0:0:0:0:0:0:1 - - [20/Mar/2018:09:52:12 +0530] "GET /CashWrap/javax.faces.resource/images/icon10.png.wrap HTTP/1.1" 200 2874
0:0:0:0:0:0:0:1 - - [20/Mar/2018:09:52:12 +0530] "GET /CashWrap/javax.faces.resource/images/icon7.png.wrap HTTP/1.1" 200 2487
0:0:0:0:0:0:0:1 - - [20/Mar/2018:09:52:13 +0530] "GET /CashWrap/javax.faces.resource/images/icon5.png.wrap HTTP/1.1" 200 2617
0:0:0:0:0:0:0:1 - - [20/Mar/2018:09:52:13 +0530] "GET /CashWrap/javax.faces.resource/images/icon12.png.wrap HTTP/1.1" 200 2807
0:0:0:0:0:0:0:1 - - [20/Mar/2018:09:52:13 +0530] "GET /CashWrap/javax.faces.resource/images/icon15.png.wrap HTTP/1.1" 200 2369
0:0:0:0:0:0:0:1 - - [20/Mar/2018:09:52:13 +0530] "GET /CashWrap/javax.faces.resource/images/icon8.png.wrap HTTP/1.1" 200 2354
0:0:0:0:0:0:0:1 - - [20/Mar/2018:09:52:13 +0530] "GET /CashWrap/javax.faces.resource/images/ui-icons_38667f_256x240.png.wrap?ln=primefaces-aristo HTTP/1.1" 200 4369
0:0:0:0:0:0:0:1 - - [20/Mar/2018:09:52:13 +0530] "GET /CashWrap/resources/images/home-icon.png HTTP/1.1" 200 3194
0:0:0:0:0:0:0:1 - - [20/Mar/2018:09:52:13 +0530] "GET /CashWrap/javax.faces.resource/images/icon9.png.wrap HTTP/1.1" 200 2715
0:0:0:0:0:0:0:1 - - [20/Mar/2018:09:52:13 +0530] "GET /CashWrap/javax.faces.resource/images/icon11.png.wrap HTTP/1.1" 200 2597
0:0:0:0:0:0:0:1 - - [20/Mar/2018:09:52:13 +0530] "GET /CashWrap/resources/images/logout-icon.png HTTP/1.1" 200 3578
0:0:0:0:0:0:0:1 - - [20/Mar/2018:09:52:13 +0530] "GET /CashWrap/resources/images/admin-icon.png HTTP/1.1" 200 3110
0:0:0:0:0:0:0:1 - - [20/Mar/2018:09:52:13 +0530] "GET /CashWrap/javax.faces.resource/images/icon6.png.wrap HTTP/1.1" 200 2357
0:0:0:0:0:0:0:1 - - [20/Mar/2018:09:52:13 +0530] "GET /CashWrap/javax.faces.resource/images/calculator-icon.png.wrap HTTP/1.1" 200 2611
0:0:0:0:0:0:0:1 - - [20/Mar/2018:09:53:01 +0530] "POST /CashWrap/retail.wrap HTTP/1.1" 200 33729
0:0:0:0:0:0:0:1 - - [20/Mar/2018:09:53:07 +0530] "POST /CashWrap/Stock.wrap HTTP/1.1" 200 30749
0:0:0:0:0:0:0:1 - - [20/Mar/2018:09:53:14 +0530] "POST /CashWrap/Brand.wrap HTTP/1.1" 200 75478
0:0:0:0:0:0:0:1 - - [20/Mar/2018:09:53:18 +0530] "POST /CashWrap/Article.wrap HTTP/1.1" 200 45372
0:0:0:0:0:0:0:1 - - [20/Mar/2018:09:53:18 +0530] "GET /CashWrap/javax.faces.resource/jsf.js.wrap?ln=javax.faces HTTP/1.1" 200 40290
0:0:0:0:0:0:0:1 - - [20/Mar/2018:09:53:21 +0530] "POST /CashWrap/ArticleList.wrap HTTP/1.1" 200 79602
0:0:0:0:0:0:0:1 - - [20/Mar/2018:09:53:22 +0530] "GET /CashWrap/javax.faces.resource/images/ui-icons_2e83ff_256x240.png.wrap?ln=primefaces-aristo HTTP/1.1" 200 4369
0:0:0:0:0:0:0:1 - - [20/Mar/2018:09:53:23 +0530] "GET /favicon.ico HTTP/1.1" 404 1081
0:0:0:0:0:0:0:1 - - [20/Mar/2018:09:53:35 +0530] "GET /CashWrap/retail.wrap?jftfdi=&jffi=retail HTTP/1.1" 200 31840
0:0:0:0:0:0:0:1 - - [20/Mar/2018:09:53:36 +0530] "POST /CashWrap/retail.wrap HTTP/1.1" 200 33723
0:0:0:0:0:0:0:1 - - [20/Mar/2018:09:53:46 +0530] "POST /CashWrap/Stock.wrap HTTP/1.1" 200 3559
0:0:0:0:0:0:0:1 - - [20/Mar/2018:09:54:00 +0530] "POST /CashWrap/Stock.wrap HTTP/1.1" 500 5832
0:0:0:0:0:0:0:1 - - [20/Mar/2018:09:54:00 +0530] "GET /CashWrap/javax.faces.resource/images/cash-wrap-logo.png.wrap HTTP/1.1" 200 8810
0:0:0:0:0:0:0:1 - - [20/Mar/2018:09:54:01 +0530] "GET /CashWrap/javax.faces.resource/images/cash-wrap.png.wrap HTTP/1.1" 200 79368
0:0:0:0:0:0:0:1 - - [20/Mar/2018:09:54:01 +0530] "GET /CashWrap/javax.faces.resource/images/patanjali-store.png.wrap HTTP/1.1" 200 194537
0:0:0:0:0:0:0:1 - - [20/Mar/2018:09:54:01 +0530] "GET /GenSoft/resources/images/background.png HTTP/1.1" 404 1109
0:0:0:0:0:0:0:1 - - [20/Mar/2018:09:54:01 +0530] "GET /CashWrap/resources/images/favicon-icon.png HTTP/1.1" 404 5832
0:0:0:0:0:0:0:1 - - [20/Mar/2018:09:54:02 +0530] "POST /CashWrap/login.wrap HTTP/1.1" 302 -
0:0:0:0:0:0:0:1 - - [20/Mar/2018:09:54:02 +0530] "GET /CashWrap/retail.wrap HTTP/1.1" 200 31846
0:0:0:0:0:0:0:1 - - [20/Mar/2018:09:54:09 +0530] "POST /CashWrap/retail.wrap HTTP/1.1" 500 5830
0:0:0:0:0:0:0:1 - - [20/Mar/2018:09:54:09 +0530] "GET /GenSoft/resources/images/background.png HTTP/1.1" 404 1109
0:0:0:0:0:0:0:1 - - [20/Mar/2018:09:54:11 +0530] "POST /CashWrap/login.wrap HTTP/1.1" 302 -
0:0:0:0:0:0:0:1 - - [20/Mar/2018:09:54:11 +0530] "GET /CashWrap/retail.wrap HTTP/1.1" 200 31837
0:0:0:0:0:0:0:1 - - [20/Mar/2018:09:54:13 +0530] "POST /CashWrap/retail.wrap HTTP/1.1" 200 33723
0:0:0:0:0:0:0:1 - - [20/Mar/2018:09:54:19 +0530] "POST /CashWrap/Stock.wrap HTTP/1.1" 200 33723
0:0:0:0:0:0:0:1 - - [20/Mar/2018:09:54:25 +0530] "POST /CashWrap/Stock.wrap HTTP/1.1" 200 3559
0:0:0:0:0:0:0:1 - - [20/Mar/2018:09:54:29 +0530] "GET /CashWrap/retail.wrap?jftfdi=&jffi=retail HTTP/1.1" 200 31843
0:0:0:0:0:0:0:1 - - [20/Mar/2018:09:54:31 +0530] "POST /CashWrap/retail.wrap HTTP/1.1" 200 48880
0:0:0:0:0:0:0:1 - - [20/Mar/2018:09:54:34 +0530] "POST /CashWrap/TransIn.wrap HTTP/1.1" 200 10505
0:0:0:0:0:0:0:1 - - [20/Mar/2018:09:54:38 +0530] "POST /CashWrap/TransIn.wrap HTTP/1.1" 200 10394
0:0:0:0:0:0:0:1 - - [20/Mar/2018:09:54:38 +0530] "POST /CashWrap/TransIn.wrap HTTP/1.1" 200 17483
0:0:0:0:0:0:0:1 - - [20/Mar/2018:09:54:40 +0530] "POST /CashWrap/TransIn.wrap HTTP/1.1" 200 52038
0:0:0:0:0:0:0:1 - - [20/Mar/2018:09:54:41 +0530] "GET /CashWrap/javax.faces.resource/messages/messages.png.wrap?ln=primefaces&v=4.0 HTTP/1.1" 200 27245
0:0:0:0:0:0:0:1 - - [20/Mar/2018:09:54:43 +0530] "POST /CashWrap/TransIn.wrap HTTP/1.1" 200 52137
0:0:0:0:0:0:0:1 - - [20/Mar/2018:09:55:06 +0530] "GET /CashWrap/retail.wrap?jftfdi=&jffi=retail HTTP/1.1" 200 31837
0:0:0:0:0:0:0:1 - - [20/Mar/2018:09:55:08 +0530] "POST /CashWrap/retail.wrap HTTP/1.1" 200 75618
0:0:0:0:0:0:0:1 - - [20/Mar/2018:09:55:20 +0530] "POST /CashWrap/Article.wrap HTTP/1.1" 500 5831
0:0:0:0:0:0:0:1 - - [20/Mar/2018:09:55:20 +0530] "GET /GenSoft/resources/images/background.png HTTP/1.1" 404 1109
0:0:0:0:0:0:0:1 - - [20/Mar/2018:09:55:21 +0530] "POST /CashWrap/login.wrap HTTP/1.1" 302 -
0:0:0:0:0:0:0:1 - - [20/Mar/2018:09:55:21 +0530] "GET /CashWrap/retail.wrap HTTP/1.1" 200 31843
0:0:0:0:0:0:0:1 - - [20/Mar/2018:09:55:23 +0530] "GET /CashWrap/retail.wrap?jftfdi=&jffi=retail HTTP/1.1" 200 31843
0:0:0:0:0:0:0:1 - - [20/Mar/2018:09:55:24 +0530] "POST /CashWrap/retail.wrap HTTP/1.1" 200 33726
0:0:0:0:0:0:0:1 - - [20/Mar/2018:09:55:34 +0530] "POST /CashWrap/Stock.wrap HTTP/1.1" 500 5831
0:0:0:0:0:0:0:1 - - [20/Mar/2018:09:55:34 +0530] "GET /GenSoft/resources/images/background.png HTTP/1.1" 404 1109
127.0.0.1 - - [20/Mar/2018:09:58:32 +0530] "GET / HTTP/1.1" 404 1070
0:0:0:0:0:0:0:1 - - [20/Mar/2018:09:58:34 +0530] "GET /CashWrap/WEB-INF/classes/com/shadowinfosystem/cashwrap/bean/StockReportBean.java HTTP/1.1" 404 5818
0:0:0:0:0:0:0:1 - - [20/Mar/2018:09:58:34 +0530] "GET /CashWrap/WEB-INF/classes/com/shadowinfosystem/cashwrap/bean/resources/css/main.css HTTP/1.1" 404 5816
0:0:0:0:0:0:0:1 - - [20/Mar/2018:09:58:34 +0530] "GET /CashWrap/WEB-INF/classes/com/shadowinfosystem/cashwrap/bean/resources/css/default.css HTTP/1.1" 404 5817
0:0:0:0:0:0:0:1 - - [20/Mar/2018:09:58:34 +0530] "GET /CashWrap/WEB-INF/classes/com/shadowinfosystem/cashwrap/bean/resources/css/cssLayout.css HTTP/1.1" 404 5819
0:0:0:0:0:0:0:1 - - [20/Mar/2018:09:58:34 +0530] "GET /CashWrap/WEB-INF/classes/com/shadowinfosystem/cashwrap/bean/resources/css/default.css HTTP/1.1" 404 5817
0:0:0:0:0:0:0:1 - - [20/Mar/2018:09:58:34 +0530] "GET /CashWrap/WEB-INF/classes/com/shadowinfosystem/cashwrap/bean/resources/css/main.css HTTP/1.1" 404 5818
0:0:0:0:0:0:0:1 - - [20/Mar/2018:09:58:34 +0530] "GET /CashWrap/WEB-INF/classes/com/shadowinfosystem/cashwrap/bean/resources/css/cssLayout.css HTTP/1.1" 404 5816
0:0:0:0:0:0:0:1 - - [20/Mar/2018:09:58:34 +0530] "GET /CashWrap/WEB-INF/classes/com/shadowinfosystem/cashwrap/bean/resources/images/cash-wrap-logo.png HTTP/1.1" 404 5819
0:0:0:0:0:0:0:1 - - [20/Mar/2018:09:58:35 +0530] "GET /CashWrap/WEB-INF/classes/com/shadowinfosystem/cashwrap/bean/resources/images/favicon-icon.png HTTP/1.1" 404 5817
0:0:0:0:0:0:0:1 - - [20/Mar/2018:09:58:56 +0530] "GET /CashWrap/ HTTP/1.1" 200 5819
0:0:0:0:0:0:0:1 - - [20/Mar/2018:09:58:56 +0530] "GET /GenSoft/resources/images/background.png HTTP/1.1" 404 1109
0:0:0:0:0:0:0:1 - - [20/Mar/2018:09:58:58 +0530] "POST /CashWrap/login.wrap HTTP/1.1" 302 -
0:0:0:0:0:0:0:1 - - [20/Mar/2018:09:59:01 +0530] "GET /CashWrap/retail.wrap HTTP/1.1" 200 31840
0:0:0:0:0:0:0:1 - - [20/Mar/2018:09:59:05 +0530] "POST /CashWrap/retail.wrap HTTP/1.1" 500 5831
0:0:0:0:0:0:0:1 - - [20/Mar/2018:09:59:06 +0530] "GET /GenSoft/resources/images/background.png HTTP/1.1" 404 1109
0:0:0:0:0:0:0:1 - - [20/Mar/2018:09:59:49 +0530] "POST /CashWrap/login.wrap HTTP/1.1" 302 -
0:0:0:0:0:0:0:1 - - [20/Mar/2018:09:59:49 +0530] "GET /CashWrap/retail.wrap HTTP/1.1" 200 31846
0:0:0:0:0:0:0:1 - - [20/Mar/2018:09:59:55 +0530] "POST /CashWrap/retail.wrap HTTP/1.1" 500 5832
0:0:0:0:0:0:0:1 - - [20/Mar/2018:09:59:55 +0530] "GET /GenSoft/resources/images/background.png HTTP/1.1" 404 1109
0:0:0:0:0:0:0:1 - - [20/Mar/2018:10:06:48 +0530] "POST /CashWrap/login.wrap HTTP/1.1" 302 -
0:0:0:0:0:0:0:1 - - [20/Mar/2018:10:06:48 +0530] "GET /CashWrap/retail.wrap HTTP/1.1" 200 31843
127.0.0.1 - - [20/Mar/2018:10:08:23 +0530] "GET / HTTP/1.1" 404 1070
0:0:0:0:0:0:0:1 - - [20/Mar/2018:10:14:11 +0530] "POST /CashWrap/retail.wrap HTTP/1.1" 500 5818
0:0:0:0:0:0:0:1 - - [20/Mar/2018:10:14:12 +0530] "GET /GenSoft/resources/images/background.png HTTP/1.1" 404 1109
0:0:0:0:0:0:0:1 - - [20/Mar/2018:10:14:13 +0530] "POST /CashWrap/login.wrap HTTP/1.1" 302 -
0:0:0:0:0:0:0:1 - - [20/Mar/2018:10:14:15 +0530] "GET /CashWrap/retail.wrap HTTP/1.1" 200 31239
0:0:0:0:0:0:0:1 - - [20/Mar/2018:10:14:17 +0530] "POST /CashWrap/retail.wrap HTTP/1.1" 200 33233
0:0:0:0:0:0:0:1 - - [20/Mar/2018:10:14:22 +0530] "POST /CashWrap/Stock.wrap HTTP/1.1" 200 4138
0:0:0:0:0:0:0:1 - - [20/Mar/2018:10:14:37 +0530] "POST /CashWrap/retail.wrap HTTP/1.1" 200 33233
0:0:0:0:0:0:0:1 - - [20/Mar/2018:10:14:47 +0530] "POST /CashWrap/Stock.wrap HTTP/1.1" 200 33434
0:0:0:0:0:0:0:1 - - [20/Mar/2018:10:15:02 +0530] "POST /CashWrap/StockReport.wrap HTTP/1.1" 200 2661
0:0:0:0:0:0:0:1 - - [20/Mar/2018:10:15:07 +0530] "GET /CashWrap/retail.wrap?jftfdi=&jffi=retail HTTP/1.1" 200 31245
0:0:0:0:0:0:0:1 - - [20/Mar/2018:10:15:10 +0530] "POST /CashWrap/retail.wrap HTTP/1.1" 200 33233
127.0.0.1 - - [20/Mar/2018:10:18:48 +0530] "GET / HTTP/1.1" 404 1070
0:0:0:0:0:0:0:1 - - [20/Mar/2018:10:19:07 +0530] "GET /CashWrap/retail.wrap HTTP/1.1" 500 5818
0:0:0:0:0:0:0:1 - - [20/Mar/2018:10:19:07 +0530] "GET /GenSoft/resources/images/background.png HTTP/1.1" 404 1109
0:0:0:0:0:0:0:1 - - [20/Mar/2018:10:19:09 +0530] "POST /CashWrap/login.wrap HTTP/1.1" 302 -
0:0:0:0:0:0:0:1 - - [20/Mar/2018:10:19:11 +0530] "GET /CashWrap/retail.wrap HTTP/1.1" 200 31229
0:0:0:0:0:0:0:1 - - [20/Mar/2018:10:19:14 +0530] "POST /CashWrap/retail.wrap HTTP/1.1" 200 33480
0:0:0:0:0:0:0:1 - - [20/Mar/2018:10:21:20 +0530] "POST /CashWrap/Stock.wrap HTTP/1.1" 200 4466
127.0.0.1 - - [20/Mar/2018:10:44:37 +0530] "GET / HTTP/1.1" 404 1070
0:0:0:0:0:0:0:1 - - [20/Mar/2018:10:44:41 +0530] "GET /CashWrap/ HTTP/1.1" 200 5817
0:0:0:0:0:0:0:1 - - [20/Mar/2018:10:44:41 +0530] "GET /GenSoft/resources/images/background.png HTTP/1.1" 404 1109
0:0:0:0:0:0:0:1 - - [20/Mar/2018:10:44:43 +0530] "POST /CashWrap/login.wrap HTTP/1.1" 302 -
0:0:0:0:0:0:0:1 - - [20/Mar/2018:10:44:46 +0530] "GET /CashWrap/retail.wrap HTTP/1.1" 200 31843
0:0:0:0:0:0:0:1 - - [20/Mar/2018:10:44:50 +0530] "POST /CashWrap/retail.wrap HTTP/1.1" 200 33989
0:0:0:0:0:0:0:1 - - [20/Mar/2018:10:44:55 +0530] "POST /CashWrap/Stock.wrap HTTP/1.1" 200 3823
0:0:0:0:0:0:0:1 - - [20/Mar/2018:10:44:58 +0530] "POST /CashWrap/Stock.wrap HTTP/1.1" 200 75475
0:0:0:0:0:0:0:1 - - [20/Mar/2018:10:45:03 +0530] "POST /CashWrap/Article.wrap HTTP/1.1" 200 45372
0:0:0:0:0:0:0:1 - - [20/Mar/2018:10:45:06 +0530] "POST /CashWrap/ArticleList.wrap HTTP/1.1" 200 79603
0:0:0:0:0:0:0:1 - - [20/Mar/2018:10:45:12 +0530] "GET /CashWrap/retail.wrap?jftfdi=&jffi=retail HTTP/1.1" 200 31843
0:0:0:0:0:0:0:1 - - [20/Mar/2018:10:45:13 +0530] "POST /CashWrap/retail.wrap HTTP/1.1" 200 33992
0:0:0:0:0:0:0:1 - - [20/Mar/2018:10:45:18 +0530] "POST /CashWrap/Stock.wrap HTTP/1.1" 200 3824
0:0:0:0:0:0:0:1 - - [20/Mar/2018:10:45:21 +0530] "POST /CashWrap/Stock.wrap HTTP/1.1" 200 75621
0:0:0:0:0:0:0:1 - - [20/Mar/2018:10:45:23 +0530] "POST /CashWrap/Article.wrap HTTP/1.1" 200 45501
0:0:0:0:0:0:0:1 - - [20/Mar/2018:10:45:27 +0530] "POST /CashWrap/ArticleList.wrap HTTP/1.1" 200 88445
0:0:0:0:0:0:0:1 - - [20/Mar/2018:10:45:34 +0530] "GET /CashWrap/retail.wrap?jftfdi=&jffi=retail HTTP/1.1" 200 31843
0:0:0:0:0:0:0:1 - - [20/Mar/2018:10:45:40 +0530] "POST /CashWrap/retail.wrap HTTP/1.1" 200 33933
0:0:0:0:0:0:0:1 - - [20/Mar/2018:10:45:42 +0530] "GET /CashWrap/retail.wrap?jftfdi=&jffi=retail HTTP/1.1" 200 31840
0:0:0:0:0:0:0:1 - - [20/Mar/2018:10:45:43 +0530] "POST /CashWrap/retail.wrap HTTP/1.1" 200 33989
0:0:0:0:0:0:0:1 - - [20/Mar/2018:10:45:47 +0530] "POST /CashWrap/Stock.wrap HTTP/1.1" 200 3823
0:0:0:0:0:0:0:1 - - [20/Mar/2018:10:46:01 +0530] "POST /CashWrap/Stock.wrap HTTP/1.1" 200 3823
0:0:0:0:0:0:0:1 - - [20/Mar/2018:10:46:02 +0530] "GET /CashWrap/retail.wrap?jftfdi=&jffi=retail HTTP/1.1" 200 31846
0:0:0:0:0:0:0:1 - - [20/Mar/2018:10:46:04 +0530] "POST /CashWrap/retail.wrap HTTP/1.1" 200 48880
0:0:0:0:0:0:0:1 - - [20/Mar/2018:10:46:08 +0530] "POST /CashWrap/TransIn.wrap HTTP/1.1" 200 22160
0:0:0:0:0:0:0:1 - - [20/Mar/2018:10:46:08 +0530] "GET /CashWrap/javax.faces.resource/jsf.js.wrap?ln=javax.faces&_=1521522964925 HTTP/1.1" 200 40290
0:0:0:0:0:0:0:1 - - [20/Mar/2018:10:46:09 +0530] "POST /CashWrap/TransIn.wrap HTTP/1.1" 200 48981
0:0:0:0:0:0:0:1 - - [20/Mar/2018:10:46:14 +0530] "POST /CashWrap/TransIn.wrap HTTP/1.1" 200 10392
0:0:0:0:0:0:0:1 - - [20/Mar/2018:10:46:14 +0530] "POST /CashWrap/TransIn.wrap HTTP/1.1" 200 17493
0:0:0:0:0:0:0:1 - - [20/Mar/2018:10:46:18 +0530] "POST /CashWrap/TransIn.wrap HTTP/1.1" 200 52053
0:0:0:0:0:0:0:1 - - [20/Mar/2018:10:46:21 +0530] "POST /CashWrap/TransIn.wrap HTTP/1.1" 200 39793
0:0:0:0:0:0:0:1 - - [20/Mar/2018:10:46:27 +0530] "GET /CashWrap/retail.wrap?jftfdi=&jffi=retail HTTP/1.1" 200 31840
0:0:0:0:0:0:0:1 - - [20/Mar/2018:10:46:29 +0530] "POST /CashWrap/retail.wrap HTTP/1.1" 200 33989
0:0:0:0:0:0:0:1 - - [20/Mar/2018:10:46:32 +0530] "POST /CashWrap/Stock.wrap HTTP/1.1" 200 3823
0:0:0:0:0:0:0:1 - - [20/Mar/2018:10:46:47 +0530] "POST /CashWrap/Stock.wrap HTTP/1.1" 200 75798
0:0:0:0:0:0:0:1 - - [20/Mar/2018:10:46:49 +0530] "POST /CashWrap/Article.wrap HTTP/1.1" 200 45498
0:0:0:0:0:0:0:1 - - [20/Mar/2018:10:46:57 +0530] "GET /CashWrap/retail.wrap?jftfdi=&jffi=retail HTTP/1.1" 200 31846
0:0:0:0:0:0:0:1 - - [20/Mar/2018:10:47:02 +0530] "POST /CashWrap/retail.wrap HTTP/1.1" 200 33992
0:0:0:0:0:0:0:1 - - [20/Mar/2018:10:47:08 +0530] "POST /CashWrap/Stock.wrap HTTP/1.1" 200 3824
0:0:0:0:0:0:0:1 - - [20/Mar/2018:10:47:20 +0530] "POST /CashWrap/Stock.wrap HTTP/1.1" 200 75804
0:0:0:0:0:0:0:1 - - [20/Mar/2018:10:47:28 +0530] "POST /CashWrap/ArticleList.wrap HTTP/1.1" 200 82550
0:0:0:0:0:0:0:1 - - [20/Mar/2018:10:47:35 +0530] "GET /CashWrap/retail.wrap?jftfdi=&jffi=retail HTTP/1.1" 200 31840
0:0:0:0:0:0:0:1 - - [20/Mar/2018:10:47:37 +0530] "POST /CashWrap/retail.wrap HTTP/1.1" 200 48877
0:0:0:0:0:0:0:1 - - [20/Mar/2018:10:47:40 +0530] "POST /CashWrap/TransIn.wrap HTTP/1.1" 200 22159
0:0:0:0:0:0:0:1 - - [20/Mar/2018:10:47:40 +0530] "GET /CashWrap/javax.faces.resource/jsf.js.wrap?ln=javax.faces&_=1521523057193 HTTP/1.1" 200 40290
0:0:0:0:0:0:0:1 - - [20/Mar/2018:10:47:44 +0530] "POST /CashWrap/TransIn.wrap HTTP/1.1" 200 48974
0:0:0:0:0:0:0:1 - - [20/Mar/2018:10:47:47 +0530] "POST /CashWrap/TransIn.wrap HTTP/1.1" 200 10519
0:0:0:0:0:0:0:1 - - [20/Mar/2018:10:47:55 +0530] "POST /CashWrap/TransIn.wrap HTTP/1.1" 200 10500
0:0:0:0:0:0:0:1 - - [20/Mar/2018:10:47:55 +0530] "POST /CashWrap/TransIn.wrap HTTP/1.1" 200 10450
0:0:0:0:0:0:0:1 - - [20/Mar/2018:10:47:56 +0530] "POST /CashWrap/TransIn.wrap HTTP/1.1" 200 10512
0:0:0:0:0:0:0:1 - - [20/Mar/2018:10:48:03 +0530] "POST /CashWrap/TransIn.wrap HTTP/1.1" 200 22159
0:0:0:0:0:0:0:1 - - [20/Mar/2018:10:48:03 +0530] "GET /CashWrap/javax.faces.resource/jsf.js.wrap?ln=javax.faces&_=1521523064453 HTTP/1.1" 200 40290
0:0:0:0:0:0:0:1 - - [20/Mar/2018:10:48:07 +0530] "POST /CashWrap/TransIn.wrap HTTP/1.1" 200 48974
0:0:0:0:0:0:0:1 - - [20/Mar/2018:10:48:14 +0530] "POST /CashWrap/TransIn.wrap HTTP/1.1" 200 10389
0:0:0:0:0:0:0:1 - - [20/Mar/2018:10:48:16 +0530] "POST /CashWrap/TransIn.wrap HTTP/1.1" 200 17490
0:0:0:0:0:0:0:1 - - [20/Mar/2018:10:48:19 +0530] "POST /CashWrap/TransIn.wrap HTTP/1.1" 200 52049
0:0:0:0:0:0:0:1 - - [20/Mar/2018:10:48:21 +0530] "POST /CashWrap/TransIn.wrap HTTP/1.1" 200 52145
0:0:0:0:0:0:0:1 - - [20/Mar/2018:10:48:28 +0530] "POST /CashWrap/TransIn.wrap HTTP/1.1" 200 52148
0:0:0:0:0:0:0:1 - - [20/Mar/2018:10:48:30 +0530] "POST /CashWrap/TransIn.wrap HTTP/1.1" 200 35385
0:0:0:0:0:0:0:1 - - [20/Mar/2018:10:48:33 +0530] "POST /CashWrap/TransInList.wrap HTTP/1.1" 200 39767
0:0:0:0:0:0:0:1 - - [20/Mar/2018:10:48:47 +0530] "POST /CashWrap/Stock.wrap HTTP/1.1" 200 3824
0:0:0:0:0:0:0:1 - - [20/Mar/2018:10:48:58 +0530] "POST /CashWrap/Stock.wrap HTTP/1.1" 200 33989
0:0:0:0:0:0:0:1 - - [20/Mar/2018:10:49:03 +0530] "POST /CashWrap/Stock.wrap HTTP/1.1" 200 4475
0:0:0:0:0:0:0:1 - - [20/Mar/2018:10:51:29 +0530] "POST /CashWrap/TransIn.wrap HTTP/1.1" 302 -
0:0:0:0:0:0:0:1 - - [20/Mar/2018:10:51:29 +0530] "GET /CashWrap HTTP/1.1" 302 -
0:0:0:0:0:0:0:1 - - [20/Mar/2018:10:51:29 +0530] "GET /CashWrap/ HTTP/1.1" 200 5818
0:0:0:0:0:0:0:1 - - [20/Mar/2018:10:51:29 +0530] "GET /GenSoft/resources/images/background.png HTTP/1.1" 404 1109
0:0:0:0:0:0:0:1 - - [20/Mar/2018:10:51:30 +0530] "POST /CashWrap/login.wrap HTTP/1.1" 302 -
0:0:0:0:0:0:0:1 - - [20/Mar/2018:10:51:31 +0530] "GET /CashWrap/retail.wrap HTTP/1.1" 200 31840
0:0:0:0:0:0:0:1 - - [20/Mar/2018:10:51:32 +0530] "POST /CashWrap/retail.wrap HTTP/1.1" 200 33986
0:0:0:0:0:0:0:1 - - [20/Mar/2018:10:51:46 +0530] "POST /CashWrap/Stock.wrap HTTP/1.1" 200 4474
0:0:0:0:0:0:0:1 - - [20/Mar/2018:10:53:39 +0530] "POST /CashWrap/Stock.wrap HTTP/1.1" 200 4466
0:0:0:0:0:0:0:1 - - [20/Mar/2018:10:53:59 +0530] "POST /CashWrap/Stock.wrap HTTP/1.1" 200 4466
0:0:0:0:0:0:0:1 - - [20/Mar/2018:10:56:17 +0530] "POST /CashWrap/Stock.wrap HTTP/1.1" 200 241
0:0:0:0:0:0:0:1 - - [20/Mar/2018:10:56:21 +0530] "POST /CashWrap/Stock.wrap HTTP/1.1" 200 241
0:0:0:0:0:0:0:1 - - [20/Mar/2018:10:56:38 +0530] "POST /CashWrap/Stock.wrap HTTP/1.1" 200 4471
127.0.0.1 - - [20/Mar/2018:12:06:10 +0530] "GET / HTTP/1.1" 404 1070
0:0:0:0:0:0:0:1 - - [20/Mar/2018:12:06:13 +0530] "GET /CashWrap/ HTTP/1.1" 200 5818
0:0:0:0:0:0:0:1 - - [20/Mar/2018:12:06:14 +0530] "GET /GenSoft/resources/images/background.png HTTP/1.1" 404 1109
0:0:0:0:0:0:0:1 - - [20/Mar/2018:12:06:17 +0530] "POST /CashWrap/login.wrap HTTP/1.1" 302 -
0:0:0:0:0:0:0:1 - - [20/Mar/2018:12:06:20 +0530] "GET /CashWrap/retail.wrap HTTP/1.1" 200 31843
0:0:0:0:0:0:0:1 - - [20/Mar/2018:12:06:25 +0530] "POST /CashWrap/retail.wrap HTTP/1.1" 200 33986
0:0:0:0:0:0:0:1 - - [20/Mar/2018:12:06:29 +0530] "POST /CashWrap/Stock.wrap HTTP/1.1" 200 3822
0:0:0:0:0:0:0:1 - - [20/Mar/2018:12:06:31 +0530] "POST /CashWrap/Stock.wrap HTTP/1.1" 200 75475
0:0:0:0:0:0:0:1 - - [20/Mar/2018:12:07:33 +0530] "POST /CashWrap/Article.wrap HTTP/1.1" 200 33986
0:0:0:0:0:0:0:1 - - [20/Mar/2018:12:07:36 +0530] "POST /CashWrap/Stock.wrap HTTP/1.1" 200 4462
0:0:0:0:0:0:0:1 - - [20/Mar/2018:12:25:54 +0530] "POST /CashWrap/Stock.wrap HTTP/1.1" 200 3822
0:0:0:0:0:0:0:1 - - [20/Mar/2018:12:25:57 +0530] "POST /CashWrap/Stock.wrap HTTP/1.1" 200 3822
0:0:0:0:0:0:0:1 - - [20/Mar/2018:12:26:00 +0530] "POST /CashWrap/Stock.wrap HTTP/1.1" 302 -
0:0:0:0:0:0:0:1 - - [20/Mar/2018:12:26:00 +0530] "GET /CashWrap HTTP/1.1" 302 -
0:0:0:0:0:0:0:1 - - [20/Mar/2018:12:26:00 +0530] "GET /CashWrap/ HTTP/1.1" 200 5818
0:0:0:0:0:0:0:1 - - [20/Mar/2018:12:26:00 +0530] "GET /GenSoft/resources/images/background.png HTTP/1.1" 404 1109
0:0:0:0:0:0:0:1 - - [20/Mar/2018:12:26:02 +0530] "POST /CashWrap/login.wrap HTTP/1.1" 302 -
0:0:0:0:0:0:0:1 - - [20/Mar/2018:12:26:02 +0530] "GET /CashWrap/retail.wrap HTTP/1.1" 200 31843
0:0:0:0:0:0:0:1 - - [20/Mar/2018:12:29:45 +0530] "POST /CashWrap/retail.wrap HTTP/1.1" 200 33989
0:0:0:0:0:0:0:1 - - [20/Mar/2018:12:30:08 +0530] "POST /CashWrap/Stock.wrap HTTP/1.1" 200 4468
0:0:0:0:0:0:0:1 - - [20/Mar/2018:12:30:15 +0530] "POST /CashWrap/Stock.wrap HTTP/1.1" 200 9127
0:0:0:0:0:0:0:1 - - [20/Mar/2018:12:30:18 +0530] "POST /CashWrap/Stock.wrap HTTP/1.1" 200 4463
0:0:0:0:0:0:0:1 - - [20/Mar/2018:14:02:02 +0530] "POST /CashWrap/Stock.wrap HTTP/1.1" 200 75475
0:0:0:0:0:0:0:1 - - [20/Mar/2018:14:02:03 +0530] "GET /favicon.ico HTTP/1.1" 404 1081
0:0:0:0:0:0:0:1 - - [20/Mar/2018:14:02:06 +0530] "POST /CashWrap/Article.wrap HTTP/1.1" 200 75472
0:0:0:0:0:0:0:1 - - [20/Mar/2018:14:02:20 +0530] "POST /CashWrap/Article.wrap HTTP/1.1" 200 79757
0:0:0:0:0:0:0:1 - - [20/Mar/2018:14:02:27 +0530] "GET /CashWrap/retail.wrap?jftfdi=&jffi=retail HTTP/1.1" 200 31846
0:0:0:0:0:0:0:1 - - [20/Mar/2018:14:02:29 +0530] "POST /CashWrap/retail.wrap HTTP/1.1" 200 33992
0:0:0:0:0:0:0:1 - - [20/Mar/2018:14:02:35 +0530] "POST /CashWrap/retail.wrap HTTP/1.1" 200 31632
0:0:0:0:0:0:0:1 - - [20/Mar/2018:14:02:36 +0530] "GET /CashWrap/retail.wrap?jftfdi=&jffi=retail HTTP/1.1" 200 31840
0:0:0:0:0:0:0:1 - - [20/Mar/2018:14:02:39 +0530] "POST /CashWrap/retail.wrap HTTP/1.1" 200 48880
0:0:0:0:0:0:0:1 - - [20/Mar/2018:14:02:46 +0530] "POST /CashWrap/TransIn.wrap HTTP/1.1" 200 10504
0:0:0:0:0:0:0:1 - - [20/Mar/2018:14:02:49 +0530] "POST /CashWrap/TransIn.wrap HTTP/1.1" 200 10393
0:0:0:0:0:0:0:1 - - [20/Mar/2018:14:02:49 +0530] "POST /CashWrap/TransIn.wrap HTTP/1.1" 200 50339
0:0:0:0:0:0:0:1 - - [20/Mar/2018:14:02:55 +0530] "POST /CashWrap/TransIn.wrap HTTP/1.1" 200 17484
0:0:0:0:0:0:0:1 - - [20/Mar/2018:14:02:59 +0530] "POST /CashWrap/TransIn.wrap HTTP/1.1" 200 52059
0:0:0:0:0:0:0:1 - - [20/Mar/2018:14:03:01 +0530] "POST /CashWrap/TransIn.wrap HTTP/1.1" 200 39796
0:0:0:0:0:0:0:1 - - [20/Mar/2018:14:03:07 +0530] "POST /CashWrap/TransIn.wrap HTTP/1.1" 200 33989
0:0:0:0:0:0:0:1 - - [20/Mar/2018:14:03:10 +0530] "POST /CashWrap/Stock.wrap HTTP/1.1" 200 4465
0:0:0:0:0:0:0:1 - - [20/Mar/2018:14:03:35 +0530] "GET /CashWrap/retail.wrap HTTP/1.1" 200 31843
0:0:0:0:0:0:0:1 - - [20/Mar/2018:14:03:36 +0530] "GET /CashWrap/resources/images/favicon-icon.png HTTP/1.1" 404 5833
0:0:0:0:0:0:0:1 - - [20/Mar/2018:14:03:42 +0530] "POST /CashWrap/retail.wrap HTTP/1.1" 200 75615
0:0:0:0:0:0:0:1 - - [20/Mar/2018:14:03:45 +0530] "POST /CashWrap/Article.wrap HTTP/1.1" 200 45981
0:0:0:0:0:0:0:1 - - [20/Mar/2018:14:03:48 +0530] "POST /CashWrap/ArticleList.wrap HTTP/1.1" 200 88450
0:0:0:0:0:0:0:1 - - [20/Mar/2018:14:03:52 +0530] "GET /CashWrap/retail.wrap?jftfdi=&jffi=retail HTTP/1.1" 200 31846
0:0:0:0:0:0:0:1 - - [20/Mar/2018:14:03:54 +0530] "POST /CashWrap/retail.wrap HTTP/1.1" 200 33989
0:0:0:0:0:0:0:1 - - [20/Mar/2018:14:03:57 +0530] "POST /CashWrap/Stock.wrap HTTP/1.1" 200 3823
0:0:0:0:0:0:0:1 - - [20/Mar/2018:14:04:01 +0530] "POST /CashWrap/Stock.wrap HTTP/1.1" 200 4471
0:0:0:0:0:0:0:1 - - [20/Mar/2018:14:04:05 +0530] "POST /CashWrap/Stock.wrap HTTP/1.1" 200 3823
0:0:0:0:0:0:0:1 - - [20/Mar/2018:14:04:08 +0530] "POST /CashWrap/Stock.wrap HTTP/1.1" 200 75801
0:0:0:0:0:0:0:1 - - [20/Mar/2018:14:04:11 +0530] "POST /CashWrap/Article.wrap HTTP/1.1" 200 46119
0:0:0:0:0:0:0:1 - - [20/Mar/2018:14:04:18 +0530] "GET /CashWrap/retail.wrap?jftfdi=&jffi=retail HTTP/1.1" 200 31846
0:0:0:0:0:0:0:1 - - [20/Mar/2018:14:04:19 +0530] "POST /CashWrap/retail.wrap HTTP/1.1" 200 33992
0:0:0:0:0:0:0:1 - - [20/Mar/2018:14:04:24 +0530] "POST /CashWrap/Stock.wrap HTTP/1.1" 200 3824
0:0:0:0:0:0:0:1 - - [20/Mar/2018:14:04:26 +0530] "POST /CashWrap/Stock.wrap HTTP/1.1" 200 75804
0:0:0:0:0:0:0:1 - - [20/Mar/2018:14:04:30 +0530] "POST /CashWrap/Article.wrap HTTP/1.1" 200 46119
0:0:0:0:0:0:0:1 - - [20/Mar/2018:14:04:32 +0530] "POST /CashWrap/ArticleList.wrap HTTP/1.1" 200 88450
0:0:0:0:0:0:0:1 - - [20/Mar/2018:14:04:40 +0530] "GET /CashWrap/retail.wrap?jftfdi=&jffi=retail HTTP/1.1" 200 31843
0:0:0:0:0:0:0:1 - - [20/Mar/2018:14:04:43 +0530] "POST /CashWrap/retail.wrap HTTP/1.1" 200 33989
0:0:0:0:0:0:0:1 - - [20/Mar/2018:14:04:48 +0530] "POST /CashWrap/Stock.wrap HTTP/1.1" 200 3823
0:0:0:0:0:0:0:1 - - [20/Mar/2018:14:04:51 +0530] "POST /CashWrap/Stock.wrap HTTP/1.1" 200 4475
0:0:0:0:0:0:0:1 - - [20/Mar/2018:14:04:56 +0530] "POST /CashWrap/Stock.wrap HTTP/1.1" 200 4471
0:0:0:0:0:0:0:1 - - [20/Mar/2018:14:04:59 +0530] "POST /CashWrap/Stock.wrap HTTP/1.1" 200 75798
0:0:0:0:0:0:0:1 - - [20/Mar/2018:14:05:26 +0530] "GET /CashWrap/retail.wrap?jftfdi=&jffi=retail HTTP/1.1" 200 31840
0:0:0:0:0:0:0:1 - - [20/Mar/2018:14:05:28 +0530] "POST /CashWrap/retail.wrap HTTP/1.1" 200 33986
0:0:0:0:0:0:0:1 - - [20/Mar/2018:14:05:31 +0530] "POST /CashWrap/Stock.wrap HTTP/1.1" 200 4466
0:0:0:0:0:0:0:1 - - [20/Mar/2018:14:09:37 +0530] "POST /CashWrap/Stock.wrap HTTP/1.1" 200 75798
0:0:0:0:0:0:0:1 - - [20/Mar/2018:14:09:41 +0530] "POST /CashWrap/Article.wrap HTTP/1.1" 200 46113
0:0:0:0:0:0:0:1 - - [20/Mar/2018:14:09:43 +0530] "POST /CashWrap/ArticleList.wrap HTTP/1.1" 200 79589
0:0:0:0:0:0:0:1 - - [20/Mar/2018:14:09:51 +0530] "POST /CashWrap/Article.wrap HTTP/1.1" 200 30749
0:0:0:0:0:0:0:1 - - [20/Mar/2018:14:09:56 +0530] "POST /CashWrap/Brand.wrap HTTP/1.1" 200 32217
0:0:0:0:0:0:0:1 - - [20/Mar/2018:14:09:58 +0530] "POST /CashWrap/Brand.wrap HTTP/1.1" 200 32302
0:0:0:0:0:0:0:1 - - [20/Mar/2018:14:10:01 +0530] "GET /CashWrap/retail.wrap?jftfdi=&jffi=retail HTTP/1.1" 200 31843
0:0:0:0:0:0:0:1 - - [20/Mar/2018:14:10:02 +0530] "POST /CashWrap/retail.wrap HTTP/1.1" 200 75736
0:0:0:0:0:0:0:1 - - [20/Mar/2018:14:10:22 +0530] "POST /CashWrap/Article.wrap HTTP/1.1" 200 534
0:0:0:0:0:0:0:1 - - [20/Mar/2018:14:10:24 +0530] "POST /CashWrap/Article.wrap HTTP/1.1" 200 79950
0:0:0:0:0:0:0:1 - - [20/Mar/2018:14:10:31 +0530] "GET /CashWrap/retail.wrap?jftfdi=&jffi=retail HTTP/1.1" 200 31846
0:0:0:0:0:0:0:1 - - [20/Mar/2018:14:10:32 +0530] "POST /CashWrap/retail.wrap HTTP/1.1" 200 33989
0:0:0:0:0:0:0:1 - - [20/Mar/2018:14:10:34 +0530] "GET /CashWrap/retail.wrap?jftfdi=&jffi=retail HTTP/1.1" 200 31840
0:0:0:0:0:0:0:1 - - [20/Mar/2018:14:10:37 +0530] "POST /CashWrap/retail.wrap HTTP/1.1" 200 48880
0:0:0:0:0:0:0:1 - - [20/Mar/2018:14:10:42 +0530] "POST /CashWrap/TransIn.wrap HTTP/1.1" 200 10537
0:0:0:0:0:0:0:1 - - [20/Mar/2018:14:10:46 +0530] "POST /CashWrap/TransIn.wrap HTTP/1.1" 200 10417
0:0:0:0:0:0:0:1 - - [20/Mar/2018:14:10:47 +0530] "POST /CashWrap/TransIn.wrap HTTP/1.1" 200 17511
0:0:0:0:0:0:0:1 - - [20/Mar/2018:14:10:49 +0530] "POST /CashWrap/TransIn.wrap HTTP/1.1" 200 52066
0:0:0:0:0:0:0:1 - - [20/Mar/2018:14:10:51 +0530] "POST /CashWrap/TransIn.wrap HTTP/1.1" 200 39806
0:0:0:0:0:0:0:1 - - [20/Mar/2018:14:10:54 +0530] "POST /CashWrap/TransIn.wrap HTTP/1.1" 200 48880
0:0:0:0:0:0:0:1 - - [20/Mar/2018:14:10:55 +0530] "GET /CashWrap/retail.wrap?jftfdi=&jffi=retail HTTP/1.1" 200 31843
0:0:0:0:0:0:0:1 - - [20/Mar/2018:14:10:58 +0530] "POST /CashWrap/retail.wrap HTTP/1.1" 200 33989
0:0:0:0:0:0:0:1 - - [20/Mar/2018:14:11:06 +0530] "POST /CashWrap/Stock.wrap HTTP/1.1" 200 4486
0:0:0:0:0:0:0:1 - - [20/Mar/2018:14:11:20 +0530] "POST /CashWrap/Stock.wrap HTTP/1.1" 200 4486
0:0:0:0:0:0:0:1 - - [20/Mar/2018:14:11:22 +0530] "POST /CashWrap/Stock.wrap HTTP/1.1" 200 4486
0:0:0:0:0:0:0:1 - - [20/Mar/2018:14:11:22 +0530] "POST /CashWrap/Stock.wrap HTTP/1.1" 200 4486
0:0:0:0:0:0:0:1 - - [20/Mar/2018:14:11:25 +0530] "POST /CashWrap/Stock.wrap HTTP/1.1" 200 75744
0:0:0:0:0:0:0:1 - - [20/Mar/2018:14:11:57 +0530] "GET /CashWrap/retail.wrap?jftfdi=&jffi=retail HTTP/1.1" 200 31843
0:0:0:0:0:0:0:1 - - [20/Mar/2018:14:11:59 +0530] "POST /CashWrap/retail.wrap HTTP/1.1" 200 33989
0:0:0:0:0:0:0:1 - - [20/Mar/2018:14:12:03 +0530] "POST /CashWrap/Stock.wrap HTTP/1.1" 200 5230
0:0:0:0:0:0:0:1 - - [20/Mar/2018:14:12:13 +0530] "POST /CashWrap/Stock.wrap HTTP/1.1" 302 -
0:0:0:0:0:0:0:1 - - [20/Mar/2018:14:12:13 +0530] "GET /CashWrap HTTP/1.1" 302 -
0:0:0:0:0:0:0:1 - - [20/Mar/2018:14:12:13 +0530] "GET /CashWrap/ HTTP/1.1" 200 5819
0:0:0:0:0:0:0:1 - - [20/Mar/2018:14:12:13 +0530] "GET /GenSoft/resources/images/background.png HTTP/1.1" 404 1109
