127.0.0.1 - - [23/Mar/2018:10:18:42 +0530] "GET / HTTP/1.1" 404 1070
0:0:0:0:0:0:0:1 - - [23/Mar/2018:10:18:49 +0530] "GET /CashWrap/ HTTP/1.1" 200 6257
0:0:0:0:0:0:0:1 - - [23/Mar/2018:10:18:50 +0530] "GET /CashWrap/javax.faces.resource/layout/layout.js.wrap;jsessionid=F6D084E44D4CA9F76D9E064113978788?ln=primefaces&v=4.0 HTTP/1.1" 200 87653
0:0:0:0:0:0:0:1 - - [23/Mar/2018:10:18:50 +0530] "GET /CashWrap/javax.faces.resource/layout/layout.css.wrap;jsessionid=F6D084E44D4CA9F76D9E064113978788?ln=primefaces&v=4.0 HTTP/1.1" 200 542
0:0:0:0:0:0:0:1 - - [23/Mar/2018:10:18:50 +0530] "GET /CashWrap/javax.faces.resource/primefaces.js.wrap;jsessionid=F6D084E44D4CA9F76D9E064113978788?ln=primefaces&v=4.0 HTTP/1.1" 200 277201
0:0:0:0:0:0:0:1 - - [23/Mar/2018:10:18:50 +0530] "GET /CashWrap/javax.faces.resource/jquery/jquery.js.wrap;jsessionid=F6D084E44D4CA9F76D9E064113978788?ln=primefaces&v=4.0 HTTP/1.1" 200 105493
0:0:0:0:0:0:0:1 - - [23/Mar/2018:10:18:50 +0530] "GET /CashWrap/resources/css/cssLayout.css HTTP/1.1" 304 -
0:0:0:0:0:0:0:1 - - [23/Mar/2018:10:18:50 +0530] "GET /CashWrap/javax.faces.resource/jquery/jquery-plugins.js.wrap;jsessionid=F6D084E44D4CA9F76D9E064113978788?ln=primefaces&v=4.0 HTTP/1.1" 200 220747
0:0:0:0:0:0:0:1 - - [23/Mar/2018:10:18:50 +0530] "GET /CashWrap/javax.faces.resource/images/cash-wrap-logo.png.wrap;jsessionid=F6D084E44D4CA9F76D9E064113978788 HTTP/1.1" 200 8810
0:0:0:0:0:0:0:1 - - [23/Mar/2018:10:18:50 +0530] "GET /CashWrap/javax.faces.resource/images/cash-wrap.png.wrap;jsessionid=F6D084E44D4CA9F76D9E064113978788 HTTP/1.1" 200 79368
0:0:0:0:0:0:0:1 - - [23/Mar/2018:10:18:50 +0530] "GET /CashWrap/javax.faces.resource/primefaces.css.wrap;jsessionid=F6D084E44D4CA9F76D9E064113978788?ln=primefaces&v=4.0 HTTP/1.1" 200 53376
0:0:0:0:0:0:0:1 - - [23/Mar/2018:10:18:50 +0530] "GET /CashWrap/javax.faces.resource/images/patanjali-store.png.wrap;jsessionid=F6D084E44D4CA9F76D9E064113978788 HTTP/1.1" 200 194537
0:0:0:0:0:0:0:1 - - [23/Mar/2018:10:18:51 +0530] "GET /GenSoft/resources/images/background.png HTTP/1.1" 404 1109
0:0:0:0:0:0:0:1 - - [23/Mar/2018:10:18:53 +0530] "GET /CashWrap/resources/images/favicon-icon.png HTTP/1.1" 404 5819
0:0:0:0:0:0:0:1 - - [23/Mar/2018:10:18:57 +0530] "POST /CashWrap/login.wrap;jsessionid=F6D084E44D4CA9F76D9E064113978788 HTTP/1.1" 302 -
0:0:0:0:0:0:0:1 - - [23/Mar/2018:10:19:05 +0530] "GET /CashWrap/retail.wrap HTTP/1.1" 200 31843
0:0:0:0:0:0:0:1 - - [23/Mar/2018:10:19:07 +0530] "GET /favicon.ico HTTP/1.1" 404 1081
0:0:0:0:0:0:0:1 - - [23/Mar/2018:10:19:13 +0530] "POST /CashWrap/retail.wrap HTTP/1.1" 200 75856
0:0:0:0:0:0:0:1 - - [23/Mar/2018:10:19:43 +0530] "POST /CashWrap/Article.wrap HTTP/1.1" 200 80148
0:0:0:0:0:0:0:1 - - [23/Mar/2018:10:19:59 +0530] "POST /CashWrap/Article.wrap HTTP/1.1" 200 83042
0:0:0:0:0:0:0:1 - - [23/Mar/2018:10:20:09 +0530] "GET /CashWrap/retail.wrap?jftfdi=&jffi=retail HTTP/1.1" 200 31840
0:0:0:0:0:0:0:1 - - [23/Mar/2018:10:20:13 +0530] "POST /CashWrap/retail.wrap HTTP/1.1" 200 48877
0:0:0:0:0:0:0:1 - - [23/Mar/2018:10:20:28 +0530] "POST /CashWrap/TransIn.wrap HTTP/1.1" 200 10507
0:0:0:0:0:0:0:1 - - [23/Mar/2018:10:20:36 +0530] "POST /CashWrap/TransIn.wrap HTTP/1.1" 200 10396
0:0:0:0:0:0:0:1 - - [23/Mar/2018:10:20:37 +0530] "POST /CashWrap/TransIn.wrap HTTP/1.1" 200 17486
0:0:0:0:0:0:0:1 - - [23/Mar/2018:10:23:49 +0530] "POST /CashWrap/TransIn.wrap HTTP/1.1" 200 52042
0:0:0:0:0:0:0:1 - - [23/Mar/2018:10:23:52 +0530] "POST /CashWrap/TransIn.wrap HTTP/1.1" 200 48877
0:0:0:0:0:0:0:1 - - [23/Mar/2018:10:23:56 +0530] "POST /CashWrap/TransIn.wrap HTTP/1.1" 200 34081
0:0:0:0:0:0:0:1 - - [23/Mar/2018:10:23:56 +0530] "GET /CashWrap/javax.faces.resource/jsf.js.wrap?ln=javax.faces&_=1521780832730 HTTP/1.1" 200 40290
0:0:0:0:0:0:0:1 - - [23/Mar/2018:10:26:52 +0530] "POST /CashWrap/TransIn.wrap HTTP/1.1" 200 48975
0:0:0:0:0:0:0:1 - - [23/Mar/2018:10:27:05 +0530] "POST /CashWrap/TransIn.wrap HTTP/1.1" 200 10450
0:0:0:0:0:0:0:1 - - [23/Mar/2018:10:35:16 +0530] "POST /CashWrap/TransIn.wrap HTTP/1.1" 200 34081
0:0:0:0:0:0:0:1 - - [23/Mar/2018:10:35:16 +0530] "GET /CashWrap/javax.faces.resource/jsf.js.wrap?ln=javax.faces&_=1521781012988 HTTP/1.1" 200 40290
0:0:0:0:0:0:0:1 - - [23/Mar/2018:10:36:12 +0530] "POST /CashWrap/TransIn.wrap HTTP/1.1" 500 5817
0:0:0:0:0:0:0:1 - - [23/Mar/2018:10:36:13 +0530] "GET /GenSoft/resources/images/background.png HTTP/1.1" 404 1109
127.0.0.1 - - [23/Mar/2018:10:36:57 +0530] "GET / HTTP/1.1" 404 1070
0:0:0:0:0:0:0:1 - - [23/Mar/2018:10:37:05 +0530] "GET /CashWrap/ HTTP/1.1" 200 5819
0:0:0:0:0:0:0:1 - - [23/Mar/2018:10:37:05 +0530] "GET /GenSoft/resources/images/background.png HTTP/1.1" 404 1109
0:0:0:0:0:0:0:1 - - [23/Mar/2018:10:37:20 +0530] "POST /CashWrap/login.wrap HTTP/1.1" 302 -
0:0:0:0:0:0:0:1 - - [23/Mar/2018:10:37:28 +0530] "GET /CashWrap/retail.wrap HTTP/1.1" 200 31846
0:0:0:0:0:0:0:1 - - [23/Mar/2018:10:37:35 +0530] "POST /CashWrap/retail.wrap HTTP/1.1" 200 75856
0:0:0:0:0:0:0:1 - - [23/Mar/2018:10:38:01 +0530] "POST /CashWrap/retail.wrap HTTP/1.1" 200 8206
0:0:0:0:0:0:0:1 - - [23/Mar/2018:10:38:47 +0530] "POST /CashWrap/Article.wrap HTTP/1.1" 200 1775
0:0:0:0:0:0:0:1 - - [23/Mar/2018:10:39:01 +0530] "POST /CashWrap/Article.wrap HTTP/1.1" 200 83123
0:0:0:0:0:0:0:1 - - [23/Mar/2018:10:39:10 +0530] "GET /CashWrap/retail.wrap?jftfdi=&jffi=retail HTTP/1.1" 200 31840
0:0:0:0:0:0:0:1 - - [23/Mar/2018:10:39:17 +0530] "POST /CashWrap/retail.wrap HTTP/1.1" 200 49832
0:0:0:0:0:0:0:1 - - [23/Mar/2018:10:39:21 +0530] "GET /CashWrap/retail.wrap?jftfdi=&jffi=retail HTTP/1.1" 200 31840
0:0:0:0:0:0:0:1 - - [23/Mar/2018:10:39:27 +0530] "POST /CashWrap/retail.wrap HTTP/1.1" 200 48877
0:0:0:0:0:0:0:1 - - [23/Mar/2018:10:39:45 +0530] "POST /CashWrap/TransIn.wrap HTTP/1.1" 200 35152
0:0:0:0:0:0:0:1 - - [23/Mar/2018:10:39:46 +0530] "GET /CashWrap/javax.faces.resource/jsf.js.wrap?ln=javax.faces&_=1521781767176 HTTP/1.1" 200 40290
0:0:0:0:0:0:0:1 - - [23/Mar/2018:10:40:02 +0530] "POST /CashWrap/TransIn.wrap HTTP/1.1" 200 48977
0:0:0:0:0:0:0:1 - - [23/Mar/2018:10:40:08 +0530] "POST /CashWrap/TransIn.wrap HTTP/1.1" 200 10390
0:0:0:0:0:0:0:1 - - [23/Mar/2018:10:40:09 +0530] "POST /CashWrap/TransIn.wrap HTTP/1.1" 200 17491
0:0:0:0:0:0:0:1 - - [23/Mar/2018:10:40:23 +0530] "POST /CashWrap/TransIn.wrap HTTP/1.1" 200 52046
0:0:0:0:0:0:0:1 - - [23/Mar/2018:10:40:38 +0530] "POST /CashWrap/TransIn.wrap HTTP/1.1" 200 39783
0:0:0:0:0:0:0:1 - - [23/Mar/2018:10:42:29 +0530] "GET /CashWrap/retail.wrap?jftfdi=&jffi=retail HTTP/1.1" 200 31840
0:0:0:0:0:0:0:1 - - [23/Mar/2018:10:42:36 +0530] "POST /CashWrap/retail.wrap HTTP/1.1" 200 33989
0:0:0:0:0:0:0:1 - - [23/Mar/2018:10:42:40 +0530] "POST /CashWrap/Stock.wrap HTTP/1.1" 200 4488
0:0:0:0:0:0:0:1 - - [23/Mar/2018:10:42:49 +0530] "POST /CashWrap/Stock.wrap HTTP/1.1" 200 9042
127.0.0.1 - - [23/Mar/2018:15:50:01 +0530] "GET / HTTP/1.1" 404 1070
0:0:0:0:0:0:0:1 - - [23/Mar/2018:15:50:16 +0530] "GET /CashWrap/ HTTP/1.1" 200 6256
0:0:0:0:0:0:0:1 - - [23/Mar/2018:15:50:17 +0530] "GET /CashWrap/javax.faces.resource/layout/layout.css.wrap;jsessionid=03B4C02BD5CBA942DC24412F6C40E6FE?ln=primefaces&v=4.0 HTTP/1.1" 200 542
0:0:0:0:0:0:0:1 - - [23/Mar/2018:15:50:17 +0530] "GET /CashWrap/javax.faces.resource/layout/layout.js.wrap;jsessionid=03B4C02BD5CBA942DC24412F6C40E6FE?ln=primefaces&v=4.0 HTTP/1.1" 200 87653
0:0:0:0:0:0:0:1 - - [23/Mar/2018:15:50:17 +0530] "GET /CashWrap/javax.faces.resource/jquery/jquery.js.wrap;jsessionid=03B4C02BD5CBA942DC24412F6C40E6FE?ln=primefaces&v=4.0 HTTP/1.1" 200 105493
0:0:0:0:0:0:0:1 - - [23/Mar/2018:15:50:17 +0530] "GET /CashWrap/javax.faces.resource/jquery/jquery-plugins.js.wrap;jsessionid=03B4C02BD5CBA942DC24412F6C40E6FE?ln=primefaces&v=4.0 HTTP/1.1" 200 220747
0:0:0:0:0:0:0:1 - - [23/Mar/2018:15:50:17 +0530] "GET /CashWrap/javax.faces.resource/primefaces.js.wrap;jsessionid=03B4C02BD5CBA942DC24412F6C40E6FE?ln=primefaces&v=4.0 HTTP/1.1" 200 277201
0:0:0:0:0:0:0:1 - - [23/Mar/2018:15:50:17 +0530] "GET /CashWrap/javax.faces.resource/images/cash-wrap-logo.png.wrap;jsessionid=03B4C02BD5CBA942DC24412F6C40E6FE HTTP/1.1" 200 8810
0:0:0:0:0:0:0:1 - - [23/Mar/2018:15:50:17 +0530] "GET /CashWrap/javax.faces.resource/primefaces.css.wrap;jsessionid=03B4C02BD5CBA942DC24412F6C40E6FE?ln=primefaces&v=4.0 HTTP/1.1" 200 53376
0:0:0:0:0:0:0:1 - - [23/Mar/2018:15:50:17 +0530] "GET /CashWrap/javax.faces.resource/images/cash-wrap.png.wrap;jsessionid=03B4C02BD5CBA942DC24412F6C40E6FE HTTP/1.1" 200 79368
0:0:0:0:0:0:0:1 - - [23/Mar/2018:15:50:17 +0530] "GET /CashWrap/javax.faces.resource/images/patanjali-store.png.wrap;jsessionid=03B4C02BD5CBA942DC24412F6C40E6FE HTTP/1.1" 200 194537
0:0:0:0:0:0:0:1 - - [23/Mar/2018:15:50:18 +0530] "GET /GenSoft/resources/images/background.png HTTP/1.1" 404 1109
0:0:0:0:0:0:0:1 - - [23/Mar/2018:15:50:25 +0530] "POST /CashWrap/login.wrap;jsessionid=03B4C02BD5CBA942DC24412F6C40E6FE HTTP/1.1" 302 -
0:0:0:0:0:0:0:1 - - [23/Mar/2018:15:50:40 +0530] "GET /CashWrap/retail.wrap HTTP/1.1" 200 31840
0:0:0:0:0:0:0:1 - - [23/Mar/2018:15:50:48 +0530] "POST /CashWrap/retail.wrap HTTP/1.1" 200 75856
0:0:0:0:0:0:0:1 - - [23/Mar/2018:15:51:04 +0530] "POST /CashWrap/Article.wrap HTTP/1.1" 200 40493
0:0:0:0:0:0:0:1 - - [23/Mar/2018:15:51:13 +0530] "POST /CashWrap/ArticleList.wrap HTTP/1.1" 200 10804
0:0:0:0:0:0:0:1 - - [23/Mar/2018:15:51:14 +0530] "GET /CashWrap/javax.faces.resource/jsf.js.wrap?ln=javax.faces&_=1521800464311 HTTP/1.1" 200 40290
0:0:0:0:0:0:0:1 - - [23/Mar/2018:15:51:20 +0530] "POST /CashWrap/ArticleList.wrap HTTP/1.1" 200 80113
0:0:0:0:0:0:0:1 - - [23/Mar/2018:15:51:25 +0530] "GET /CashWrap/retail.wrap?jftfdi=&jffi=retail HTTP/1.1" 200 31843
0:0:0:0:0:0:0:1 - - [23/Mar/2018:15:51:28 +0530] "POST /CashWrap/retail.wrap HTTP/1.1" 200 8206
0:0:0:0:0:0:0:1 - - [23/Mar/2018:15:51:28 +0530] "POST /CashWrap/retail.wrap HTTP/1.1" 200 49629
0:0:0:0:0:0:0:1 - - [23/Mar/2018:15:51:35 +0530] "GET /favicon.ico HTTP/1.1" 404 1081
0:0:0:0:0:0:0:1 - - [23/Mar/2018:15:51:37 +0530] "POST /CashWrap/TransIn.wrap HTTP/1.1" 200 11306
0:0:0:0:0:0:0:1 - - [23/Mar/2018:15:55:47 +0530] "POST /CashWrap/TransIn.wrap HTTP/1.1" 500 5831
0:0:0:0:0:0:0:1 - - [23/Mar/2018:15:55:47 +0530] "GET /GenSoft/resources/images/background.png HTTP/1.1" 404 1109
0:0:0:0:0:0:0:1 - - [23/Mar/2018:15:55:48 +0530] "GET /CashWrap/resources/images/favicon-icon.png HTTP/1.1" 404 5833
0:0:0:0:0:0:0:1 - - [23/Mar/2018:15:55:49 +0530] "POST /CashWrap/login.wrap HTTP/1.1" 302 -
0:0:0:0:0:0:0:1 - - [23/Mar/2018:15:55:49 +0530] "GET /CashWrap/retail.wrap HTTP/1.1" 200 31840
0:0:0:0:0:0:0:1 - - [23/Mar/2018:15:55:51 +0530] "POST /CashWrap/retail.wrap HTTP/1.1" 200 50617
0:0:0:0:0:0:0:1 - - [23/Mar/2018:15:55:55 +0530] "POST /CashWrap/TransIn.wrap HTTP/1.1" 200 12199
0:0:0:0:0:0:0:1 - - [23/Mar/2018:15:56:07 +0530] "POST /CashWrap/TransIn.wrap HTTP/1.1" 200 12199
0:0:0:0:0:0:0:1 - - [23/Mar/2018:15:56:10 +0530] "POST /CashWrap/TransIn.wrap HTTP/1.1" 200 12145
0:0:0:0:0:0:0:1 - - [23/Mar/2018:15:56:13 +0530] "POST /CashWrap/TransIn.wrap HTTP/1.1" 200 12199
0:0:0:0:0:0:0:1 - - [23/Mar/2018:15:56:13 +0530] "POST /CashWrap/TransIn.wrap HTTP/1.1" 200 17844
0:0:0:0:0:0:0:1 - - [23/Mar/2018:15:56:28 +0530] "POST /CashWrap/TransIn.wrap HTTP/1.1" 200 12145
0:0:0:0:0:0:0:1 - - [23/Mar/2018:15:56:29 +0530] "POST /CashWrap/TransIn.wrap HTTP/1.1" 200 36913
0:0:0:0:0:0:0:1 - - [23/Mar/2018:15:56:29 +0530] "GET /CashWrap/javax.faces.resource/jsf.js.wrap?ln=javax.faces&_=1521800751163 HTTP/1.1" 200 40290
0:0:0:0:0:0:0:1 - - [23/Mar/2018:15:56:31 +0530] "POST /CashWrap/TransIn.wrap HTTP/1.1" 200 50748
0:0:0:0:0:0:0:1 - - [23/Mar/2018:15:56:40 +0530] "POST /CashWrap/TransIn.wrap HTTP/1.1" 200 75993
0:0:0:0:0:0:0:1 - - [23/Mar/2018:15:56:51 +0530] "POST /CashWrap/Article.wrap HTTP/1.1" 200 1774
0:0:0:0:0:0:0:1 - - [23/Mar/2018:15:57:05 +0530] "POST /CashWrap/Article.wrap HTTP/1.1" 200 535
0:0:0:0:0:0:0:1 - - [23/Mar/2018:15:57:08 +0530] "POST /CashWrap/Article.wrap HTTP/1.1" 200 534
0:0:0:0:0:0:0:1 - - [23/Mar/2018:15:57:21 +0530] "POST /CashWrap/Article.wrap HTTP/1.1" 200 121067
0:0:0:0:0:0:0:1 - - [23/Mar/2018:15:57:28 +0530] "GET /CashWrap/retail.wrap?jftfdi=&jffi=retail HTTP/1.1" 200 31843
0:0:0:0:0:0:0:1 - - [23/Mar/2018:15:57:30 +0530] "POST /CashWrap/retail.wrap HTTP/1.1" 200 50623
0:0:0:0:0:0:0:1 - - [23/Mar/2018:15:57:34 +0530] "POST /CashWrap/TransIn.wrap HTTP/1.1" 200 22595
0:0:0:0:0:0:0:1 - - [23/Mar/2018:15:57:34 +0530] "GET /CashWrap/javax.faces.resource/jsf.js.wrap?ln=javax.faces&_=1521800850664 HTTP/1.1" 200 40290
0:0:0:0:0:0:0:1 - - [23/Mar/2018:15:57:36 +0530] "POST /CashWrap/TransIn.wrap HTTP/1.1" 200 50789
127.0.0.1 - - [23/Mar/2018:17:47:46 +0530] "GET / HTTP/1.1" 404 1070
0:0:0:0:0:0:0:1 - - [23/Mar/2018:17:47:49 +0530] "GET /CashWrap/ HTTP/1.1" 200 5819
0:0:0:0:0:0:0:1 - - [23/Mar/2018:17:47:49 +0530] "GET /CashWrap/resources/css/default.css HTTP/1.1" 200 2927
0:0:0:0:0:0:0:1 - - [23/Mar/2018:17:47:49 +0530] "GET /CashWrap/resources/css/cssLayout.css HTTP/1.1" 200 6121
0:0:0:0:0:0:0:1 - - [23/Mar/2018:17:47:49 +0530] "GET /CashWrap/resources/css/main.css HTTP/1.1" 200 2741
0:0:0:0:0:0:0:1 - - [23/Mar/2018:17:47:49 +0530] "GET /CashWrap/javax.faces.resource/layout/layout.css.wrap?ln=primefaces&v=4.0 HTTP/1.1" 200 542
0:0:0:0:0:0:0:1 - - [23/Mar/2018:17:47:49 +0530] "GET /CashWrap/javax.faces.resource/primefaces.css.wrap?ln=primefaces&v=4.0 HTTP/1.1" 200 53376
0:0:0:0:0:0:0:1 - - [23/Mar/2018:17:47:49 +0530] "GET /CashWrap/javax.faces.resource/jquery/jquery.js.wrap?ln=primefaces&v=4.0 HTTP/1.1" 200 105493
0:0:0:0:0:0:0:1 - - [23/Mar/2018:17:47:49 +0530] "GET /CashWrap/javax.faces.resource/jquery/jquery-plugins.js.wrap?ln=primefaces&v=4.0 HTTP/1.1" 200 220747
0:0:0:0:0:0:0:1 - - [23/Mar/2018:17:47:49 +0530] "GET /CashWrap/javax.faces.resource/layout/layout.js.wrap?ln=primefaces&v=4.0 HTTP/1.1" 200 87653
0:0:0:0:0:0:0:1 - - [23/Mar/2018:17:47:49 +0530] "GET /CashWrap/javax.faces.resource/primefaces.js.wrap?ln=primefaces&v=4.0 HTTP/1.1" 200 277201
0:0:0:0:0:0:0:1 - - [23/Mar/2018:17:47:49 +0530] "GET /CashWrap/javax.faces.resource/theme.css.wrap?ln=primefaces-aristo HTTP/1.1" 200 28091
0:0:0:0:0:0:0:1 - - [23/Mar/2018:17:47:50 +0530] "GET /CashWrap/javax.faces.resource/images/cash-wrap-logo.png.wrap HTTP/1.1" 200 8810
0:0:0:0:0:0:0:1 - - [23/Mar/2018:17:47:50 +0530] "GET /CashWrap/javax.faces.resource/images/cash-wrap.png.wrap HTTP/1.1" 200 79368
0:0:0:0:0:0:0:1 - - [23/Mar/2018:17:47:50 +0530] "GET /CashWrap/javax.faces.resource/images/patanjali-store.png.wrap HTTP/1.1" 200 194537
0:0:0:0:0:0:0:1 - - [23/Mar/2018:17:47:50 +0530] "GET /CashWrap/resources/images/bg.png HTTP/1.1" 200 208321
0:0:0:0:0:0:0:1 - - [23/Mar/2018:17:47:50 +0530] "GET /CashWrap/resources/images/bg1.jpg HTTP/1.1" 200 104997
0:0:0:0:0:0:0:1 - - [23/Mar/2018:17:47:50 +0530] "GET /GenSoft/resources/images/background.png HTTP/1.1" 404 1109
0:0:0:0:0:0:0:1 - - [23/Mar/2018:17:47:50 +0530] "GET /CashWrap/resources/images/cash-wrap-logo.png HTTP/1.1" 200 8790
0:0:0:0:0:0:0:1 - - [23/Mar/2018:17:47:50 +0530] "GET /CashWrap/resources/images/login-icon.png HTTP/1.1" 200 1266
0:0:0:0:0:0:0:1 - - [23/Mar/2018:17:47:50 +0530] "GET /CashWrap/resources/images/favicon-icon.png HTTP/1.1" 404 5818
0:0:0:0:0:0:0:1 - - [23/Mar/2018:17:47:52 +0530] "POST /CashWrap/login.wrap HTTP/1.1" 302 -
0:0:0:0:0:0:0:1 - - [23/Mar/2018:17:47:55 +0530] "GET /CashWrap/retail.wrap HTTP/1.1" 200 31843
0:0:0:0:0:0:0:1 - - [23/Mar/2018:17:47:55 +0530] "GET /CashWrap/resources/js/jquery-2.2.1.min.js HTTP/1.1" 200 85630
0:0:0:0:0:0:0:1 - - [23/Mar/2018:17:47:55 +0530] "GET /CashWrap/javax.faces.resource/spacer/dot_clear.gif.wrap?ln=primefaces&v=4.0 HTTP/1.1" 200 42
0:0:0:0:0:0:0:1 - - [23/Mar/2018:17:47:55 +0530] "GET /CashWrap/javax.faces.resource/images/loading.gif.wrap HTTP/1.1" 200 2089
0:0:0:0:0:0:0:1 - - [23/Mar/2018:17:47:55 +0530] "GET /CashWrap/javax.faces.resource/images/RingLoading.gif.wrap HTTP/1.1" 200 2273
0:0:0:0:0:0:0:1 - - [23/Mar/2018:17:47:55 +0530] "GET /CashWrap/javax.faces.resource/images/user.png.wrap HTTP/1.1" 200 3860
0:0:0:0:0:0:0:1 - - [23/Mar/2018:17:47:55 +0530] "GET /CashWrap/javax.faces.resource/images/master.png.wrap HTTP/1.1" 200 1582
0:0:0:0:0:0:0:1 - - [23/Mar/2018:17:47:55 +0530] "GET /CashWrap/javax.faces.resource/images/transaction.png.wrap HTTP/1.1" 200 1552
0:0:0:0:0:0:0:1 - - [23/Mar/2018:17:47:55 +0530] "GET /CashWrap/javax.faces.resource/images/account-tranction.png.wrap HTTP/1.1" 200 1511
0:0:0:0:0:0:0:1 - - [23/Mar/2018:17:47:56 +0530] "GET /CashWrap/javax.faces.resource/images/report.png.wrap HTTP/1.1" 200 1585
0:0:0:0:0:0:0:1 - - [23/Mar/2018:17:47:56 +0530] "GET /CashWrap/javax.faces.resource/images/utilities.png.wrap HTTP/1.1" 200 1688
0:0:0:0:0:0:0:1 - - [23/Mar/2018:17:47:56 +0530] "GET /CashWrap/javax.faces.resource/images/user-management.png.wrap HTTP/1.1" 200 1553
0:0:0:0:0:0:0:1 - - [23/Mar/2018:17:47:56 +0530] "GET /CashWrap/javax.faces.resource/images/nav-icon.png.wrap HTTP/1.1" 200 2964
0:0:0:0:0:0:0:1 - - [23/Mar/2018:17:47:56 +0530] "GET /CashWrap/javax.faces.resource/images/icon1.png.wrap HTTP/1.1" 200 2183
0:0:0:0:0:0:0:1 - - [23/Mar/2018:17:47:56 +0530] "GET /CashWrap/javax.faces.resource/images/icon2.png.wrap HTTP/1.1" 200 4457
0:0:0:0:0:0:0:1 - - [23/Mar/2018:17:47:56 +0530] "GET /CashWrap/javax.faces.resource/images/icon3.png.wrap HTTP/1.1" 200 2071
0:0:0:0:0:0:0:1 - - [23/Mar/2018:17:47:56 +0530] "GET /CashWrap/javax.faces.resource/images/icon4.png.wrap HTTP/1.1" 200 3302
0:0:0:0:0:0:0:1 - - [23/Mar/2018:17:47:56 +0530] "GET /CashWrap/javax.faces.resource/images/icon8.png.wrap HTTP/1.1" 200 2354
0:0:0:0:0:0:0:1 - - [23/Mar/2018:17:47:56 +0530] "GET /CashWrap/javax.faces.resource/images/icon5.png.wrap HTTP/1.1" 200 2617
0:0:0:0:0:0:0:1 - - [23/Mar/2018:17:47:56 +0530] "GET /CashWrap/javax.faces.resource/images/icon6.png.wrap HTTP/1.1" 200 2357
0:0:0:0:0:0:0:1 - - [23/Mar/2018:17:47:56 +0530] "GET /CashWrap/javax.faces.resource/images/ui-icons_38667f_256x240.png.wrap?ln=primefaces-aristo HTTP/1.1" 200 4369
0:0:0:0:0:0:0:1 - - [23/Mar/2018:17:47:56 +0530] "GET /CashWrap/resources/images/admin-icon.png HTTP/1.1" 200 3110
0:0:0:0:0:0:0:1 - - [23/Mar/2018:17:47:56 +0530] "GET /CashWrap/resources/images/logout-icon.png HTTP/1.1" 200 3578
0:0:0:0:0:0:0:1 - - [23/Mar/2018:17:47:56 +0530] "GET /CashWrap/javax.faces.resource/images/icon10.png.wrap HTTP/1.1" 200 2874
0:0:0:0:0:0:0:1 - - [23/Mar/2018:17:47:56 +0530] "GET /CashWrap/javax.faces.resource/images/icon7.png.wrap HTTP/1.1" 200 2487
0:0:0:0:0:0:0:1 - - [23/Mar/2018:17:47:56 +0530] "GET /CashWrap/javax.faces.resource/images/icon9.png.wrap HTTP/1.1" 200 2715
0:0:0:0:0:0:0:1 - - [23/Mar/2018:17:47:56 +0530] "GET /CashWrap/javax.faces.resource/images/ui-icons_616161_256x240.png.wrap?ln=primefaces-aristo HTTP/1.1" 200 4369
0:0:0:0:0:0:0:1 - - [23/Mar/2018:17:47:56 +0530] "GET /CashWrap/javax.faces.resource/images/ui-icons_898989_256x240.png.wrap?ln=primefaces-aristo HTTP/1.1" 200 5355
0:0:0:0:0:0:0:1 - - [23/Mar/2018:17:47:56 +0530] "GET /CashWrap/javax.faces.resource/images/icon11.png.wrap HTTP/1.1" 200 2597
0:0:0:0:0:0:0:1 - - [23/Mar/2018:17:47:56 +0530] "GET /CashWrap/javax.faces.resource/images/icon12.png.wrap HTTP/1.1" 200 2807
0:0:0:0:0:0:0:1 - - [23/Mar/2018:17:47:56 +0530] "GET /CashWrap/javax.faces.resource/images/icon13.png.wrap HTTP/1.1" 200 2322
0:0:0:0:0:0:0:1 - - [23/Mar/2018:17:47:56 +0530] "GET /CashWrap/javax.faces.resource/images/calculator-icon.png.wrap HTTP/1.1" 200 2611
0:0:0:0:0:0:0:1 - - [23/Mar/2018:17:47:56 +0530] "GET /CashWrap/resources/images/home-icon.png HTTP/1.1" 200 3194
0:0:0:0:0:0:0:1 - - [23/Mar/2018:17:47:56 +0530] "GET /CashWrap/javax.faces.resource/images/icon15.png.wrap HTTP/1.1" 200 2369
0:0:0:0:0:0:0:1 - - [23/Mar/2018:17:47:56 +0530] "GET /CashWrap/javax.faces.resource/images/icon14.png.wrap HTTP/1.1" 200 2395
0:0:0:0:0:0:0:1 - - [23/Mar/2018:17:47:56 +0530] "GET /favicon.ico HTTP/1.1" 404 1081
0:0:0:0:0:0:0:1 - - [23/Mar/2018:17:48:18 +0530] "POST /CashWrap/retail.wrap HTTP/1.1" 200 75857
0:0:0:0:0:0:0:1 - - [23/Mar/2018:17:48:21 +0530] "GET /CashWrap/javax.faces.resource/images/ui-icons_2e83ff_256x240.png.wrap?ln=primefaces-aristo HTTP/1.1" 200 4369
0:0:0:0:0:0:0:1 - - [23/Mar/2018:17:48:28 +0530] "POST /CashWrap/Article.wrap HTTP/1.1" 200 80158
0:0:0:0:0:0:0:1 - - [23/Mar/2018:17:48:28 +0530] "GET /CashWrap/javax.faces.resource/messages/messages.png.wrap?ln=primefaces&v=4.0 HTTP/1.1" 200 27245
0:0:0:0:0:0:0:1 - - [23/Mar/2018:17:48:36 +0530] "POST /CashWrap/Article.wrap HTTP/1.1" 200 86064
0:0:0:0:0:0:0:1 - - [23/Mar/2018:17:48:42 +0530] "GET /CashWrap/retail.wrap?jftfdi=&jffi=retail HTTP/1.1" 200 31846
0:0:0:0:0:0:0:1 - - [23/Mar/2018:17:48:45 +0530] "POST /CashWrap/retail.wrap HTTP/1.1" 200 50620
0:0:0:0:0:0:0:1 - - [23/Mar/2018:17:48:50 +0530] "POST /CashWrap/TransIn.wrap HTTP/1.1" 200 15908
0:0:0:0:0:0:0:1 - - [23/Mar/2018:17:48:50 +0530] "GET /CashWrap/javax.faces.resource/jsf.js.wrap?ln=javax.faces&_=1521807526015 HTTP/1.1" 200 40290
0:0:0:0:0:0:0:1 - - [23/Mar/2018:17:48:51 +0530] "POST /CashWrap/TransIn.wrap HTTP/1.1" 200 50769
0:0:0:0:0:0:0:1 - - [23/Mar/2018:17:48:55 +0530] "POST /CashWrap/TransIn.wrap HTTP/1.1" 200 12294
0:0:0:0:0:0:0:1 - - [23/Mar/2018:17:48:55 +0530] "POST /CashWrap/TransIn.wrap HTTP/1.1" 200 18154
0:0:0:0:0:0:0:1 - - [23/Mar/2018:17:49:17 +0530] "POST /CashWrap/TransIn.wrap HTTP/1.1" 200 12386
0:0:0:0:0:0:0:1 - - [23/Mar/2018:17:49:26 +0530] "GET /CashWrap/ HTTP/1.1" 200 5833
0:0:0:0:0:0:0:1 - - [23/Mar/2018:17:49:26 +0530] "GET /GenSoft/resources/images/background.png HTTP/1.1" 404 1109
0:0:0:0:0:0:0:1 - - [23/Mar/2018:17:49:28 +0530] "POST /CashWrap/login.wrap HTTP/1.1" 302 -
0:0:0:0:0:0:0:1 - - [23/Mar/2018:17:49:28 +0530] "GET /CashWrap/retail.wrap HTTP/1.1" 200 31840
0:0:0:0:0:0:0:1 - - [23/Mar/2018:17:49:31 +0530] "POST /CashWrap/retail.wrap HTTP/1.1" 200 50620
0:0:0:0:0:0:0:1 - - [23/Mar/2018:17:49:36 +0530] "POST /CashWrap/TransIn.wrap HTTP/1.1" 200 15908
0:0:0:0:0:0:0:1 - - [23/Mar/2018:17:49:36 +0530] "GET /CashWrap/javax.faces.resource/jsf.js.wrap?ln=javax.faces&_=1521807571364 HTTP/1.1" 200 40290
0:0:0:0:0:0:0:1 - - [23/Mar/2018:17:49:37 +0530] "POST /CashWrap/TransIn.wrap HTTP/1.1" 200 50763
0:0:0:0:0:0:0:1 - - [23/Mar/2018:17:49:41 +0530] "POST /CashWrap/TransIn.wrap HTTP/1.1" 200 12262
0:0:0:0:0:0:0:1 - - [23/Mar/2018:17:49:41 +0530] "POST /CashWrap/TransIn.wrap HTTP/1.1" 200 17908
0:0:0:0:0:0:0:1 - - [23/Mar/2018:17:49:56 +0530] "POST /CashWrap/TransIn.wrap HTTP/1.1" 200 189
0:0:0:0:0:0:0:1 - - [23/Mar/2018:17:49:57 +0530] "POST /CashWrap/TransIn.wrap HTTP/1.1" 500 5833
0:0:0:0:0:0:0:1 - - [23/Mar/2018:17:49:58 +0530] "GET /GenSoft/resources/images/background.png HTTP/1.1" 404 1109
0:0:0:0:0:0:0:1 - - [23/Mar/2018:17:49:59 +0530] "POST /CashWrap/login.wrap HTTP/1.1" 302 -
0:0:0:0:0:0:0:1 - - [23/Mar/2018:17:49:59 +0530] "GET /CashWrap/retail.wrap HTTP/1.1" 200 31840
0:0:0:0:0:0:0:1 - - [23/Mar/2018:17:50:01 +0530] "POST /CashWrap/retail.wrap HTTP/1.1" 200 50620
0:0:0:0:0:0:0:1 - - [23/Mar/2018:17:50:06 +0530] "POST /CashWrap/TransIn.wrap HTTP/1.1" 200 15908
0:0:0:0:0:0:0:1 - - [23/Mar/2018:17:50:06 +0530] "GET /CashWrap/javax.faces.resource/jsf.js.wrap?ln=javax.faces&_=1521807601192 HTTP/1.1" 200 40290
0:0:0:0:0:0:0:1 - - [23/Mar/2018:17:50:07 +0530] "POST /CashWrap/TransIn.wrap HTTP/1.1" 200 50763
0:0:0:0:0:0:0:1 - - [23/Mar/2018:17:50:12 +0530] "POST /CashWrap/TransIn.wrap HTTP/1.1" 200 12171
0:0:0:0:0:0:0:1 - - [23/Mar/2018:17:50:12 +0530] "POST /CashWrap/TransIn.wrap HTTP/1.1" 200 19215
0:0:0:0:0:0:0:1 - - [23/Mar/2018:17:50:14 +0530] "POST /CashWrap/TransIn.wrap HTTP/1.1" 200 12285
0:0:0:0:0:0:0:1 - - [23/Mar/2018:17:50:19 +0530] "POST /CashWrap/TransIn.wrap HTTP/1.1" 200 12174
0:0:0:0:0:0:0:1 - - [23/Mar/2018:17:50:19 +0530] "POST /CashWrap/TransIn.wrap HTTP/1.1" 200 21032
0:0:0:0:0:0:0:1 - - [23/Mar/2018:17:50:24 +0530] "POST /CashWrap/TransIn.wrap HTTP/1.1" 200 15377
0:0:0:0:0:0:0:1 - - [23/Mar/2018:17:50:24 +0530] "GET /CashWrap/javax.faces.resource/jsf.js.wrap?ln=javax.faces&_=1521807607606 HTTP/1.1" 200 40290
0:0:0:0:0:0:0:1 - - [23/Mar/2018:17:50:25 +0530] "POST /CashWrap/TransIn.wrap HTTP/1.1" 200 54296
0:0:0:0:0:0:0:1 - - [23/Mar/2018:17:50:31 +0530] "POST /CashWrap/TransIn.wrap HTTP/1.1" 200 12287
0:0:0:0:0:0:0:1 - - [23/Mar/2018:17:50:34 +0530] "POST /CashWrap/TransIn.wrap HTTP/1.1" 200 12176
0:0:0:0:0:0:0:1 - - [23/Mar/2018:17:50:34 +0530] "POST /CashWrap/TransIn.wrap HTTP/1.1" 200 22850
0:0:0:0:0:0:0:1 - - [23/Mar/2018:17:50:36 +0530] "POST /CashWrap/TransIn.wrap HTTP/1.1" 200 57438
0:0:0:0:0:0:0:1 - - [23/Mar/2018:17:50:39 +0530] "POST /CashWrap/TransIn.wrap HTTP/1.1" 200 57540
0:0:0:0:0:0:0:1 - - [23/Mar/2018:17:50:49 +0530] "POST /CashWrap/TransIn.wrap HTTP/1.1" 200 55491
0:0:0:0:0:0:0:1 - - [23/Mar/2018:17:50:50 +0530] "POST /CashWrap/TransIn.wrap HTTP/1.1" 200 55717
0:0:0:0:0:0:0:1 - - [23/Mar/2018:17:50:52 +0530] "POST /CashWrap/TransIn.wrap HTTP/1.1" 200 53672
0:0:0:0:0:0:0:1 - - [23/Mar/2018:17:50:53 +0530] "POST /CashWrap/TransIn.wrap HTTP/1.1" 200 51962
0:0:0:0:0:0:0:1 - - [23/Mar/2018:17:51:00 +0530] "POST /CashWrap/TransIn.wrap HTTP/1.1" 200 47376
0:0:0:0:0:0:0:1 - - [23/Mar/2018:17:51:00 +0530] "GET /CashWrap/javax.faces.resource/jsf.js.wrap?ln=javax.faces&_=1521807653977 HTTP/1.1" 200 40290
0:0:0:0:0:0:0:1 - - [23/Mar/2018:17:51:01 +0530] "POST /CashWrap/TransIn.wrap HTTP/1.1" 200 51960
0:0:0:0:0:0:0:1 - - [23/Mar/2018:17:51:10 +0530] "POST /CashWrap/TransIn.wrap HTTP/1.1" 200 12165
0:0:0:0:0:0:0:1 - - [23/Mar/2018:17:51:10 +0530] "POST /CashWrap/TransIn.wrap HTTP/1.1" 200 19224
0:0:0:0:0:0:0:1 - - [23/Mar/2018:17:51:13 +0530] "POST /CashWrap/TransIn.wrap HTTP/1.1" 200 53826
0:0:0:0:0:0:0:1 - - [23/Mar/2018:17:51:14 +0530] "POST /CashWrap/TransIn.wrap HTTP/1.1" 200 39805
0:0:0:0:0:0:0:1 - - [23/Mar/2018:17:51:17 +0530] "POST /CashWrap/TransIn.wrap HTTP/1.1" 200 50620
0:0:0:0:0:0:0:1 - - [23/Mar/2018:17:51:22 +0530] "POST /CashWrap/TransIn.wrap HTTP/1.1" 200 16446
0:0:0:0:0:0:0:1 - - [23/Mar/2018:17:51:22 +0530] "GET /CashWrap/javax.faces.resource/jsf.js.wrap?ln=javax.faces&_=1521807677338 HTTP/1.1" 200 40290
0:0:0:0:0:0:0:1 - - [23/Mar/2018:17:51:23 +0530] "POST /CashWrap/TransIn.wrap HTTP/1.1" 200 50751
0:0:0:0:0:0:0:1 - - [23/Mar/2018:17:51:27 +0530] "POST /CashWrap/TransIn.wrap HTTP/1.1" 200 12168
0:0:0:0:0:0:0:1 - - [23/Mar/2018:17:51:27 +0530] "POST /CashWrap/TransIn.wrap HTTP/1.1" 200 19224
0:0:0:0:0:0:0:1 - - [23/Mar/2018:17:51:29 +0530] "POST /CashWrap/TransIn.wrap HTTP/1.1" 200 53811
0:0:0:0:0:0:0:1 - - [23/Mar/2018:17:51:30 +0530] "POST /CashWrap/TransIn.wrap HTTP/1.1" 200 39790
0:0:0:0:0:0:0:1 - - [23/Mar/2018:17:51:42 +0530] "GET /CashWrap/retail.wrap?jftfdi=&jffi=retail HTTP/1.1" 200 31840
0:0:0:0:0:0:0:1 - - [23/Mar/2018:17:51:43 +0530] "POST /CashWrap/retail.wrap HTTP/1.1" 200 31629
0:0:0:0:0:0:0:1 - - [23/Mar/2018:17:51:45 +0530] "GET /CashWrap/retail.wrap?jftfdi=&jffi=retail HTTP/1.1" 200 31843
0:0:0:0:0:0:0:1 - - [23/Mar/2018:17:51:46 +0530] "POST /CashWrap/retail.wrap HTTP/1.1" 200 34407
0:0:0:0:0:0:0:1 - - [23/Mar/2018:17:51:50 +0530] "POST /CashWrap/Stock.wrap HTTP/1.1" 200 4488
0:0:0:0:0:0:0:1 - - [23/Mar/2018:17:52:01 +0530] "POST /CashWrap/Stock.wrap HTTP/1.1" 200 9545
0:0:0:0:0:0:0:1 - - [23/Mar/2018:17:52:04 +0530] "POST /CashWrap/Stock.wrap HTTP/1.1" 200 3823
0:0:0:0:0:0:0:1 - - [23/Mar/2018:17:52:12 +0530] "POST /CashWrap/Stock.wrap HTTP/1.1" 200 4488
0:0:0:0:0:0:0:1 - - [23/Mar/2018:17:52:18 +0530] "POST /CashWrap/Stock.wrap HTTP/1.1" 200 210
0:0:0:0:0:0:0:1 - - [23/Mar/2018:17:52:19 +0530] "POST /CashWrap/Stock.wrap HTTP/1.1" 200 9545
0:0:0:0:0:0:0:1 - - [23/Mar/2018:17:52:22 +0530] "POST /CashWrap/Stock.wrap HTTP/1.1" 200 4488
0:0:0:0:0:0:0:1 - - [23/Mar/2018:17:52:33 +0530] "POST /CashWrap/Stock.wrap HTTP/1.1" 200 3823
0:0:0:0:0:0:0:1 - - [23/Mar/2018:17:52:34 +0530] "POST /CashWrap/Stock.wrap HTTP/1.1" 200 3823
0:0:0:0:0:0:0:1 - - [23/Mar/2018:17:52:35 +0530] "POST /CashWrap/Stock.wrap HTTP/1.1" 200 3823
0:0:0:0:0:0:0:1 - - [23/Mar/2018:17:52:42 +0530] "POST /CashWrap/Stock.wrap HTTP/1.1" 200 76122
0:0:0:0:0:0:0:1 - - [23/Mar/2018:17:53:01 +0530] "GET /CashWrap/retail.wrap?jftfdi=&jffi=retail HTTP/1.1" 200 31843
0:0:0:0:0:0:0:1 - - [23/Mar/2018:17:53:02 +0530] "POST /CashWrap/retail.wrap HTTP/1.1" 200 34407
0:0:0:0:0:0:0:1 - - [23/Mar/2018:17:53:12 +0530] "POST /CashWrap/Stock.wrap HTTP/1.1" 200 3823
0:0:0:0:0:0:0:1 - - [23/Mar/2018:17:53:13 +0530] "POST /CashWrap/Stock.wrap HTTP/1.1" 200 3823
0:0:0:0:0:0:0:1 - - [23/Mar/2018:17:53:13 +0530] "POST /CashWrap/Stock.wrap HTTP/1.1" 200 3823
0:0:0:0:0:0:0:1 - - [23/Mar/2018:17:53:14 +0530] "POST /CashWrap/Stock.wrap HTTP/1.1" 200 3823
0:0:0:0:0:0:0:1 - - [23/Mar/2018:17:58:14 +0530] "GET /CashWrap/retail.wrap?jftfdi=&jffi=retail HTTP/1.1" 200 31840
0:0:0:0:0:0:0:1 - - [23/Mar/2018:17:58:15 +0530] "POST /CashWrap/retail.wrap HTTP/1.1" 200 34407
0:0:0:0:0:0:0:1 - - [23/Mar/2018:18:00:09 +0530] "GET /CashWrap/retail.wrap?jftfdi=&jffi=retail HTTP/1.1" 200 31843
0:0:0:0:0:0:0:1 - - [23/Mar/2018:18:00:17 +0530] "POST /CashWrap/retail.wrap HTTP/1.1" 200 33930
0:0:0:0:0:0:0:1 - - [23/Mar/2018:18:01:40 +0530] "GET /CashWrap/retail.wrap?jftfdi=&jffi=retail HTTP/1.1" 200 31843
0:0:0:0:0:0:0:1 - - [23/Mar/2018:18:01:42 +0530] "POST /CashWrap/retail.wrap HTTP/1.1" 200 34404
0:0:0:0:0:0:0:1 - - [23/Mar/2018:18:01:47 +0530] "POST /CashWrap/Stock.wrap HTTP/1.1" 200 3822
0:0:0:0:0:0:0:1 - - [23/Mar/2018:18:01:54 +0530] "POST /CashWrap/Stock.wrap HTTP/1.1" 200 3822
0:0:0:0:0:0:0:1 - - [23/Mar/2018:18:02:23 +0530] "POST /CashWrap/Stock.wrap HTTP/1.1" 200 3822
0:0:0:0:0:0:0:1 - - [23/Mar/2018:18:02:39 +0530] "POST /CashWrap/Stock.wrap HTTP/1.1" 200 3822
0:0:0:0:0:0:0:1 - - [23/Mar/2018:18:02:39 +0530] "POST /CashWrap/Stock.wrap HTTP/1.1" 200 3822
0:0:0:0:0:0:0:1 - - [23/Mar/2018:18:02:40 +0530] "POST /CashWrap/Stock.wrap HTTP/1.1" 200 3822
127.0.0.1 - - [23/Mar/2018:18:08:24 +0530] "GET / HTTP/1.1" 404 1070
127.0.0.1 - - [23/Mar/2018:18:08:39 +0530] "GET / HTTP/1.1" 404 1070
0:0:0:0:0:0:0:1 - - [23/Mar/2018:18:08:46 +0530] "POST /CashWrap/Stock.wrap HTTP/1.1" 500 5817
0:0:0:0:0:0:0:1 - - [23/Mar/2018:18:08:47 +0530] "GET /GenSoft/resources/images/background.png HTTP/1.1" 404 1109
0:0:0:0:0:0:0:1 - - [23/Mar/2018:18:08:49 +0530] "POST /CashWrap/login.wrap HTTP/1.1" 302 -
0:0:0:0:0:0:0:1 - - [23/Mar/2018:18:08:51 +0530] "GET /CashWrap/retail.wrap HTTP/1.1" 200 31232
0:0:0:0:0:0:0:1 - - [23/Mar/2018:18:09:01 +0530] "POST /CashWrap/retail.wrap HTTP/1.1" 500 5819
0:0:0:0:0:0:0:1 - - [23/Mar/2018:18:09:01 +0530] "GET /GenSoft/resources/images/background.png HTTP/1.1" 404 1109
0:0:0:0:0:0:0:1 - - [23/Mar/2018:18:09:03 +0530] "POST /CashWrap/login.wrap HTTP/1.1" 302 -
0:0:0:0:0:0:0:1 - - [23/Mar/2018:18:09:04 +0530] "GET /CashWrap/retail.wrap HTTP/1.1" 200 31239
0:0:0:0:0:0:0:1 - - [23/Mar/2018:18:09:05 +0530] "POST /CashWrap/retail.wrap HTTP/1.1" 200 33911
0:0:0:0:0:0:0:1 - - [23/Mar/2018:18:09:10 +0530] "POST /CashWrap/Stock.wrap HTTP/1.1" 200 3822
0:0:0:0:0:0:0:1 - - [23/Mar/2018:18:09:15 +0530] "POST /CashWrap/Stock.wrap HTTP/1.1" 200 3822
0:0:0:0:0:0:0:1 - - [23/Mar/2018:18:09:16 +0530] "POST /CashWrap/Stock.wrap HTTP/1.1" 200 3822
0:0:0:0:0:0:0:1 - - [23/Mar/2018:18:09:17 +0530] "POST /CashWrap/Stock.wrap HTTP/1.1" 200 3822
127.0.0.1 - - [23/Mar/2018:18:12:02 +0530] "GET / HTTP/1.1" 404 1070
0:0:0:0:0:0:0:1 - - [23/Mar/2018:18:12:07 +0530] "POST /CashWrap/Stock.wrap HTTP/1.1" 500 5817
0:0:0:0:0:0:0:1 - - [23/Mar/2018:18:12:07 +0530] "GET /GenSoft/resources/images/background.png HTTP/1.1" 404 1109
0:0:0:0:0:0:0:1 - - [23/Mar/2018:18:12:09 +0530] "POST /CashWrap/login.wrap HTTP/1.1" 302 -
0:0:0:0:0:0:0:1 - - [23/Mar/2018:18:12:12 +0530] "GET /CashWrap/retail.wrap HTTP/1.1" 200 31229
0:0:0:0:0:0:0:1 - - [23/Mar/2018:18:12:15 +0530] "POST /CashWrap/retail.wrap HTTP/1.1" 200 33898
0:0:0:0:0:0:0:1 - - [23/Mar/2018:18:12:18 +0530] "POST /CashWrap/Stock.wrap HTTP/1.1" 200 5993
0:0:0:0:0:0:0:1 - - [23/Mar/2018:18:12:27 +0530] "POST /CashWrap/Stock.wrap HTTP/1.1" 200 4487
